digraph "FTensor::Dg_Expr&lt; const Christof&lt; A, Tensor_Dim0, Tensor_Dim12 &gt;, T, Dim12, Dim0, i, j, k &gt;"
{
 // INTERACTIVE_SVG=YES
 // LATEX_PDF_SIZE
  edge [fontname="Helvetica",fontsize="10",labelfontname="Helvetica",labelfontsize="10"];
  node [fontname="Helvetica",fontsize="10",shape=record];
  Node1 [label="FTensor::Dg_Expr\< const\l Christof\< A, Tensor_Dim0,\l Tensor_Dim12 \>, T, Dim12,\l Dim0, i, j, k \>",height=0.2,width=0.4,color="black", fillcolor="grey75", style="filled", fontcolor="black",tooltip=" "];
  Node2 -> Node1 [dir="back",color="darkorchid3",fontsize="10",style="dashed",label=" iter" ,fontname="Helvetica"];
  Node2 [label="FTensor::Christof\<\l A, Tensor_Dim0, Tensor\l_Dim12 \>",height=0.2,width=0.4,color="black", fillcolor="white", style="filled",URL="$class_f_tensor_1_1_christof.html",tooltip=" "];
}
