digraph "FTensor::Tensor4_times_Tensor2_symmetric_03&lt; A, B, T, U, Dim, Dim1, Dim2, i, j, k, l &gt;"
{
 // INTERACTIVE_SVG=YES
 // LATEX_PDF_SIZE
  edge [fontname="Helvetica",fontsize="10",labelfontname="Helvetica",labelfontsize="10"];
  node [fontname="Helvetica",fontsize="10",shape=record];
  rankdir="LR";
  Node1 [label="FTensor::Tensor4_times\l_Tensor2_symmetric_03\l\< A, B, T, U, Dim, Dim1,\l Dim2, i, j, k, l \>",height=0.2,width=0.4,color="black", fillcolor="grey75", style="filled", fontcolor="black",tooltip=" "];
  Node2 -> Node1 [dir="back",color="darkorchid3",fontsize="10",style="dashed",label=" iterA" ,fontname="Helvetica"];
  Node2 [label="FTensor::Tensor4_Expr\l\< A, T, Dim, Dim1, Dim2,\l Dim, i, j, k, l \>",height=0.2,width=0.4,color="black", fillcolor="white", style="filled",URL="$class_f_tensor_1_1_tensor4___expr.html",tooltip=" "];
  Node3 -> Node1 [dir="back",color="darkorchid3",fontsize="10",style="dashed",label=" iterB" ,fontname="Helvetica"];
  Node3 [label="FTensor::Tensor2_symmetric\l_Expr\< B, U, Dim, i, l \>",height=0.2,width=0.4,color="black", fillcolor="white", style="filled",URL="$class_f_tensor_1_1_tensor2__symmetric___expr.html",tooltip=" "];
}
