digraph "FTensor::Tensor3_times_Tensor3_23_23&lt; A, B, T, U, Dim14, Dim25, Dim0, Dim3, i, j, k, l &gt;"
{
 // INTERACTIVE_SVG=YES
 // LATEX_PDF_SIZE
  edge [fontname="Helvetica",fontsize="10",labelfontname="Helvetica",labelfontsize="10"];
  node [fontname="Helvetica",fontsize="10",shape=record];
  rankdir="LR";
  Node1 [label="FTensor::Tensor3_times\l_Tensor3_23_23\< A, B,\l T, U, Dim14, Dim25, Dim0,\l Dim3, i, j, k, l \>",height=0.2,width=0.4,color="black", fillcolor="grey75", style="filled", fontcolor="black",tooltip=" "];
  Node2 -> Node1 [dir="back",color="darkorchid3",fontsize="10",style="dashed",label=" iterB" ,fontname="Helvetica"];
  Node2 [label="FTensor::Tensor3_Expr\l\< B, U, Dim3, Dim14,\l Dim25, l, i, j \>",height=0.2,width=0.4,color="black", fillcolor="white", style="filled",URL="$class_f_tensor_1_1_tensor3___expr.html",tooltip=" "];
  Node3 -> Node1 [dir="back",color="darkorchid3",fontsize="10",style="dashed",label=" iterA" ,fontname="Helvetica"];
  Node3 [label="FTensor::Tensor3_Expr\l\< A, T, Dim0, Dim14,\l Dim25, k, i, j \>",height=0.2,width=0.4,color="black", fillcolor="white", style="filled",URL="$class_f_tensor_1_1_tensor3___expr.html",tooltip=" "];
}
