digraph "FTensor::Tensor4_Expr&lt; Tensor4&lt; A, Dim0, Dim1, Dim2, Dim3 &gt;, T, Dim0, Dim1, Dim2, Dim3, i, j, k, l &gt;"
{
 // INTERACTIVE_SVG=YES
 // LATEX_PDF_SIZE
  edge [fontname="Helvetica",fontsize="10",labelfontname="Helvetica",labelfontsize="10"];
  node [fontname="Helvetica",fontsize="10",shape=record];
  Node1 [label="FTensor::Tensor4_Expr\l\< Tensor4\< A, Dim0, Dim1,\l Dim2, Dim3 \>, T, Dim0,\l Dim1, Dim2, Dim3, i, j, k, l \>",height=0.2,width=0.4,color="black", fillcolor="grey75", style="filled", fontcolor="black",tooltip=" "];
  Node2 -> Node1 [dir="back",color="darkorchid3",fontsize="10",style="dashed",label=" iter" ,fontname="Helvetica"];
  Node2 [label="FTensor::Tensor4\< A,\l Dim0, Dim1, Dim2, Dim3 \>",height=0.2,width=0.4,color="black", fillcolor="white", style="filled",URL="$class_f_tensor_1_1_tensor4.html",tooltip=" "];
}
