digraph "FTensor::Dg_and_Tensor2_symmetric&lt; A, B, T, U, Dim01, Dim2, i, j, k &gt;"
{
 // INTERACTIVE_SVG=YES
 // LATEX_PDF_SIZE
  edge [fontname="Helvetica",fontsize="10",labelfontname="Helvetica",labelfontsize="10"];
  node [fontname="Helvetica",fontsize="10",shape=record];
  Node1 [label="FTensor::Dg_and_Tensor2\l_symmetric\< A, B, T, U,\l Dim01, Dim2, i, j, k \>",height=0.2,width=0.4,color="black", fillcolor="grey75", style="filled", fontcolor="black",tooltip=" "];
  Node2 -> Node1 [dir="back",color="darkorchid3",fontsize="10",style="dashed",label=" iterB" ,fontname="Helvetica"];
  Node2 [label="FTensor::Tensor2_symmetric\l_Expr\< B, U, Dim01, i, j \>",height=0.2,width=0.4,color="black", fillcolor="white", style="filled",URL="$class_f_tensor_1_1_tensor2__symmetric___expr.html",tooltip=" "];
}
