digraph "FTensor::Tensor0&lt; PackPtr&lt; T *, I &gt; &gt;"
{
 // INTERACTIVE_SVG=YES
 // LATEX_PDF_SIZE
  edge [fontname="Helvetica",fontsize="10",labelfontname="Helvetica",labelfontsize="10"];
  node [fontname="Helvetica",fontsize="10",shape=record];
  Node1 [label="FTensor::Tensor0\< PackPtr\l\< T *, I \> \>",height=0.2,width=0.4,color="black", fillcolor="grey75", style="filled", fontcolor="black",tooltip=" "];
  Node2 -> Node1 [dir="back",color="midnightblue",fontsize="10",style="solid",fontname="Helvetica"];
  Node2 [label="FTensor::Tensor0\< T * \>",height=0.2,width=0.4,color="black", fillcolor="white", style="filled",URL="$class_f_tensor_1_1_tensor0_3_01_t_01_5_01_4.html",tooltip=" "];
}
