digraph "OPBASE"
{
 // INTERACTIVE_SVG=YES
 // LATEX_PDF_SIZE
  edge [fontname="Helvetica",fontsize="10",labelfontname="Helvetica",labelfontsize="10"];
  node [fontname="Helvetica",fontsize="10",shape=record];
  Node1 [label="OPBASE",height=0.2,width=0.4,color="black", fillcolor="grey75", style="filled", fontcolor="black",tooltip=" "];
  Node1 -> Node2 [dir="back",color="midnightblue",fontsize="10",style="solid",fontname="Helvetica"];
  Node2 [label="PoissonExample::OpBaseRhs\l\< OPBASE \>",height=0.2,width=0.4,color="black", fillcolor="white", style="filled",URL="$struct_poisson_example_1_1_op_base_rhs.html",tooltip="template class for integration oh the right hand side"];
}
