digraph "FTensor::Tensor3_plus_Tensor3&lt; A, B, T, U, Dim0, Dim1, Dim2, Dim0, Dim2, Dim1, i, j, k, i, k, j &gt;"
{
 // INTERACTIVE_SVG=YES
 // LATEX_PDF_SIZE
  edge [fontname="Helvetica",fontsize="10",labelfontname="Helvetica",labelfontsize="10"];
  node [fontname="Helvetica",fontsize="10",shape=record];
  Node1 [label="FTensor::Tensor3_plus\l_Tensor3\< A, B, T, U,\l Dim0, Dim1, Dim2, Dim0,\l Dim2, Dim1, i, j, k, i,\l k, j \>",height=0.2,width=0.4,color="black", fillcolor="grey75", style="filled", fontcolor="black",tooltip=" "];
  Node2 -> Node1 [dir="back",color="darkorchid3",fontsize="10",style="dashed",label=" iterB" ,fontname="Helvetica"];
  Node2 [label="FTensor::Tensor3_Expr\l\< B, U, Dim0, Dim2, Dim1,\l i, k, j \>",height=0.2,width=0.4,color="black", fillcolor="white", style="filled",URL="$class_f_tensor_1_1_tensor3___expr.html",tooltip=" "];
}
