digraph "FTensor::Ddg_and_Ddg0213&lt; A, B, T, U, Dim, i, j, k, l &gt;"
{
 // INTERACTIVE_SVG=YES
 // LATEX_PDF_SIZE
  edge [fontname="Helvetica",fontsize="10",labelfontname="Helvetica",labelfontsize="10"];
  node [fontname="Helvetica",fontsize="10",shape=record];
  rankdir="LR";
  Node1 [label="FTensor::Ddg_and_Ddg0213\l\< A, B, T, U, Dim, i, j,\l k, l \>",height=0.2,width=0.4,color="black", fillcolor="grey75", style="filled", fontcolor="black",tooltip=" "];
  Node2 -> Node1 [dir="back",color="darkorchid3",fontsize="10",style="dashed",label=" iterB" ,fontname="Helvetica"];
  Node2 [label="FTensor::Ddg_Expr\<\l B, U, Dim, Dim, i,\l l, k, j \>",height=0.2,width=0.4,color="black", fillcolor="white", style="filled",URL="$class_f_tensor_1_1_ddg___expr.html",tooltip=" "];
  Node3 -> Node1 [dir="back",color="darkorchid3",fontsize="10",style="dashed",label=" iterA" ,fontname="Helvetica"];
  Node3 [label="FTensor::Ddg_Expr\<\l A, T, Dim, Dim, i,\l k, l, j \>",height=0.2,width=0.4,color="black", fillcolor="white", style="filled",URL="$class_f_tensor_1_1_ddg___expr.html",tooltip=" "];
}
