digraph "FTensor::Tensor2_symmetric&lt; PackPtr&lt; T *, I &gt;, Tensor_Dim &gt;"
{
 // INTERACTIVE_SVG=YES
 // LATEX_PDF_SIZE
  edge [fontname="Helvetica",fontsize="10",labelfontname="Helvetica",labelfontsize="10"];
  node [fontname="Helvetica",fontsize="10",shape=record];
  Node1 [label="FTensor::Tensor2_symmetric\l\< PackPtr\< T *, I \>, Tensor_Dim \>",height=0.2,width=0.4,color="black", fillcolor="grey75", style="filled", fontcolor="black",tooltip=" "];
  Node2 -> Node1 [dir="back",color="midnightblue",fontsize="10",style="solid",fontname="Helvetica"];
  Node2 [label="FTensor::Tensor2_symmetric\l\< T *, Tensor_Dim \>",height=0.2,width=0.4,color="black", fillcolor="white", style="filled",URL="$class_f_tensor_1_1_tensor2__symmetric_3_01_t_01_5_00_01_tensor___dim_01_4.html",tooltip=" "];
}
