digraph "FTensor::dd_boundary_Tensor0&lt; T, Dim, i, j &gt;"
{
 // INTERACTIVE_SVG=YES
 // LATEX_PDF_SIZE
  edge [fontname="Helvetica",fontsize="10",labelfontname="Helvetica",labelfontsize="10"];
  node [fontname="Helvetica",fontsize="10",shape=record];
  rankdir="LR";
  Node1 [label="FTensor::dd_boundary\l_Tensor0\< T, Dim, i, j \>",height=0.2,width=0.4,color="black", fillcolor="grey75", style="filled", fontcolor="black",tooltip=" "];
  Node2 -> Node1 [dir="back",color="darkorchid3",fontsize="10",style="dashed",label=" boundary" ,fontname="Helvetica"];
  Node2 [label="FTensor::Tensor2\< bool,\l Dim, 2 \>",height=0.2,width=0.4,color="black", fillcolor="white", style="filled",URL="$class_f_tensor_1_1_tensor2.html",tooltip=" "];
  Node3 -> Node2 [dir="back",color="darkorchid3",fontsize="10",style="dashed",label=" data" ,fontname="Helvetica"];
  Node3 [label="bool",height=0.2,width=0.4,color="black", fillcolor="white", style="filled",URL="$classbool.html",tooltip=" "];
  Node4 -> Node1 [dir="back",color="darkorchid3",fontsize="10",style="dashed",label=" d_xyz" ,fontname="Helvetica"];
  Node4 [label="FTensor::Tensor1\< double,\l Dim \>",height=0.2,width=0.4,color="black", fillcolor="white", style="filled",URL="$class_f_tensor_1_1_tensor1.html",tooltip=" "];
  Node5 -> Node4 [dir="back",color="darkorchid3",fontsize="10",style="dashed",label=" data" ,fontname="Helvetica"];
  Node5 [label="double",height=0.2,width=0.4,color="black", fillcolor="white", style="filled",URL="$classdouble.html",tooltip=" "];
  Node6 -> Node1 [dir="back",color="darkorchid3",fontsize="10",style="dashed",label=" a" ,fontname="Helvetica"];
  Node6 [label="FTensor::Tensor0\< T * \>",height=0.2,width=0.4,color="black", fillcolor="white", style="filled",URL="$class_f_tensor_1_1_tensor0_3_01_t_01_5_01_4.html",tooltip=" "];
  Node7 -> Node1 [dir="back",color="darkorchid3",fontsize="10",style="dashed",label=" d_ijk" ,fontname="Helvetica"];
  Node7 [label="FTensor::Tensor1\< int,\l Dim \>",height=0.2,width=0.4,color="black", fillcolor="white", style="filled",URL="$class_f_tensor_1_1_tensor1.html",tooltip=" "];
}
