digraph "FTensor::Tensor2_symmetric_Expr&lt; Tensor2_symmetric&lt; A, Tensor_Dim &gt;, T, Dim, i, j &gt;"
{
 // INTERACTIVE_SVG=YES
 // LATEX_PDF_SIZE
  edge [fontname="Helvetica",fontsize="10",labelfontname="Helvetica",labelfontsize="10"];
  node [fontname="Helvetica",fontsize="10",shape=record];
  Node1 [label="FTensor::Tensor2_symmetric\l_Expr\< Tensor2_symmetric\l\< A, Tensor_Dim \>, T, Dim,\l i, j \>",height=0.2,width=0.4,color="black", fillcolor="grey75", style="filled", fontcolor="black",tooltip=" "];
  Node2 -> Node1 [dir="back",color="darkorchid3",fontsize="10",style="dashed",label=" iter" ,fontname="Helvetica"];
  Node2 [label="FTensor::Tensor2_symmetric\l\< A, Tensor_Dim \>",height=0.2,width=0.4,color="black", fillcolor="white", style="filled",URL="$class_f_tensor_1_1_tensor2__symmetric.html",tooltip=" "];
}
