digraph "FTensor::Ddg_times_Tensor2_3_1&lt; A, B, T, U, Dim01, Dim23, Dim4, i, j, k, l, m &gt;"
{
 // INTERACTIVE_SVG=YES
 // LATEX_PDF_SIZE
  edge [fontname="Helvetica",fontsize="10",labelfontname="Helvetica",labelfontsize="10"];
  node [fontname="Helvetica",fontsize="10",shape=record];
  Node1 [label="FTensor::Ddg_times\l_Tensor2_3_1\< A, B,\l T, U, Dim01, Dim23,\l Dim4, i, j, k, l, m \>",height=0.2,width=0.4,color="black", fillcolor="grey75", style="filled", fontcolor="black",tooltip=" "];
  Node2 -> Node1 [dir="back",color="darkorchid3",fontsize="10",style="dashed",label=" iterB" ,fontname="Helvetica"];
  Node2 [label="FTensor::Tensor2_Expr\l\< B, U, Dim23, Dim4,\l l, m \>",height=0.2,width=0.4,color="black", fillcolor="white", style="filled",URL="$class_f_tensor_1_1_tensor2___expr.html",tooltip=" "];
}
