digraph "FaceElementForcesAndSourcesCore"
{
 // INTERACTIVE_SVG=YES
 // LATEX_PDF_SIZE
  edge [fontname="Helvetica",fontsize="10",labelfontname="Helvetica",labelfontsize="10"];
  node [fontname="Helvetica",fontsize="10",shape=record];
  rankdir="LR";
  Node1 [label="FaceElementForcesAndSourcesCore",height=0.2,width=0.4,color="black", fillcolor="grey75", style="filled", fontcolor="black",tooltip=" "];
  Node1 -> Node2 [dir="back",color="midnightblue",fontsize="10",style="solid",fontname="Helvetica"];
  Node2 [label="FractureMechanics::\lConstantArea::MyTriangleFE",height=0.2,width=0.4,color="black", fillcolor="white", style="filled",URL="$struct_fracture_mechanics_1_1_constant_area_1_1_my_triangle_f_e.html",tooltip=" "];
  Node1 -> Node3 [dir="back",color="midnightblue",fontsize="10",style="solid",fontname="Helvetica"];
  Node3 [label="FractureMechanics::\lGriffithForceElement\l::MyTriangleFE",height=0.2,width=0.4,color="black", fillcolor="white", style="filled",URL="$struct_fracture_mechanics_1_1_griffith_force_element_1_1_my_triangle_f_e.html",tooltip=" "];
  Node3 -> Node4 [dir="back",color="midnightblue",fontsize="10",style="solid",fontname="Helvetica"];
  Node4 [label="FractureMechanics::\lGriffithForceElement\l::MyTriangleFEConstrains",height=0.2,width=0.4,color="black", fillcolor="white", style="filled",URL="$struct_fracture_mechanics_1_1_griffith_force_element_1_1_my_triangle_f_e_constrains.html",tooltip=" "];
  Node3 -> Node5 [dir="back",color="midnightblue",fontsize="10",style="solid",fontname="Helvetica"];
  Node5 [label="FractureMechanics::\lGriffithForceElement\l::MyTriangleFEConstrainsDelta",height=0.2,width=0.4,color="black", fillcolor="white", style="filled",URL="$struct_fracture_mechanics_1_1_griffith_force_element_1_1_my_triangle_f_e_constrains_delta.html",tooltip=" "];
  Node1 -> Node6 [dir="back",color="midnightblue",fontsize="10",style="solid",fontname="Helvetica"];
  Node6 [label="TriFE",height=0.2,width=0.4,color="black", fillcolor="white", style="filled",URL="$struct_tri_f_e.html",tooltip=" "];
}
