digraph "FTensor::Tensor3_antisymmetric_plus_Tensor3_antisymmetric&lt; A, B, T, U, Dim0, Dim12, i, j, k &gt;"
{
 // INTERACTIVE_SVG=YES
 // LATEX_PDF_SIZE
  edge [fontname="Helvetica",fontsize="10",labelfontname="Helvetica",labelfontsize="10"];
  node [fontname="Helvetica",fontsize="10",shape=record];
  Node1 [label="FTensor::Tensor3_antisymmetric\l_plus_Tensor3_antisymmetric\l\< A, B, T, U, Dim0, Dim12, i, j, k \>",height=0.2,width=0.4,color="black", fillcolor="grey75", style="filled", fontcolor="black",tooltip=" "];
  Node2 -> Node1 [dir="back",color="darkorchid3",fontsize="10",style="dashed",label=" iterB" ,fontname="Helvetica"];
  Node2 [label="FTensor::Tensor3_antisymmetric\l_Expr\< B, U, Dim0, Dim12,\l i, j, k \>",height=0.2,width=0.4,color="black", fillcolor="white", style="filled",URL="$class_f_tensor_1_1_tensor3__antisymmetric___expr.html",tooltip=" "];
}
