digraph "FTensor::Dg_or_Dg_12&lt; A, B, T, U, Dim, i, j, k &gt;"
{
 // INTERACTIVE_SVG=YES
 // LATEX_PDF_SIZE
  edge [fontname="Helvetica",fontsize="10",labelfontname="Helvetica",labelfontsize="10"];
  node [fontname="Helvetica",fontsize="10",shape=record];
  rankdir="LR";
  Node1 [label="FTensor::Dg_or_Dg_12\l\< A, B, T, U, Dim, i,\l j, k \>",height=0.2,width=0.4,color="black", fillcolor="grey75", style="filled", fontcolor="black",tooltip=" "];
  Node2 -> Node1 [dir="back",color="darkorchid3",fontsize="10",style="dashed",label=" iterB" ,fontname="Helvetica"];
  Node2 [label="FTensor::Dg_Expr\< B,\l U, Dim, Dim, i, k, j \>",height=0.2,width=0.4,color="black", fillcolor="white", style="filled",URL="$class_f_tensor_1_1_dg___expr.html",tooltip=" "];
  Node3 -> Node1 [dir="back",color="darkorchid3",fontsize="10",style="dashed",label=" iterA" ,fontname="Helvetica"];
  Node3 [label="FTensor::Dg_Expr\< A,\l T, Dim, Dim, i, j, k \>",height=0.2,width=0.4,color="black", fillcolor="white", style="filled",URL="$class_f_tensor_1_1_dg___expr.html",tooltip=" "];
}
