digraph "FTensor::dTensor1&lt; T, Dim0, Dim1, i, j &gt;"
{
 // INTERACTIVE_SVG=YES
 // LATEX_PDF_SIZE
  edge [fontname="Helvetica",fontsize="10",labelfontname="Helvetica",labelfontsize="10"];
  node [fontname="Helvetica",fontsize="10",shape=record];
  rankdir="LR";
  Node1 [label="FTensor::dTensor1\<\l T, Dim0, Dim1, i, j \>",height=0.2,width=0.4,color="black", fillcolor="grey75", style="filled", fontcolor="black",tooltip=" "];
  Node2 -> Node1 [dir="back",color="darkorchid3",fontsize="10",style="dashed",label=" d_ijk" ,fontname="Helvetica"];
  Node2 [label="FTensor::Tensor1\< int,\l Dim1 \>",height=0.2,width=0.4,color="black", fillcolor="white", style="filled",URL="$class_f_tensor_1_1_tensor1.html",tooltip=" "];
  Node3 -> Node1 [dir="back",color="darkorchid3",fontsize="10",style="dashed",label=" d_xyz" ,fontname="Helvetica"];
  Node3 [label="FTensor::Tensor1\< double,\l Dim1 \>",height=0.2,width=0.4,color="black", fillcolor="white", style="filled",URL="$class_f_tensor_1_1_tensor1.html",tooltip=" "];
  Node4 -> Node3 [dir="back",color="darkorchid3",fontsize="10",style="dashed",label=" data" ,fontname="Helvetica"];
  Node4 [label="double",height=0.2,width=0.4,color="black", fillcolor="white", style="filled",URL="$classdouble.html",tooltip=" "];
  Node5 -> Node1 [dir="back",color="darkorchid3",fontsize="10",style="dashed",label=" a" ,fontname="Helvetica"];
  Node5 [label="FTensor::Tensor1\< T\l *, Dim0 \>",height=0.2,width=0.4,color="black", fillcolor="white", style="filled",URL="$class_f_tensor_1_1_tensor1.html",tooltip=" "];
}
