digraph "FTensor::Dg_times_Tensor2_21&lt; A, B, T, U, Dim01, Dim2, i, j, k &gt;"
{
 // INTERACTIVE_SVG=YES
 // LATEX_PDF_SIZE
  edge [fontname="Helvetica",fontsize="10",labelfontname="Helvetica",labelfontsize="10"];
  node [fontname="Helvetica",fontsize="10",shape=record];
  Node1 [label="FTensor::Dg_times_Tensor2\l_21\< A, B, T, U, Dim01,\l Dim2, i, j, k \>",height=0.2,width=0.4,color="black", fillcolor="grey75", style="filled", fontcolor="black",tooltip=" "];
  Node2 -> Node1 [dir="back",color="darkorchid3",fontsize="10",style="dashed",label=" iterB" ,fontname="Helvetica"];
  Node2 [label="FTensor::Tensor2_Expr\l\< B, U, Dim2, Dim01,\l k, j \>",height=0.2,width=0.4,color="black", fillcolor="white", style="filled",URL="$class_f_tensor_1_1_tensor2___expr.html",tooltip=" "];
}
