digraph "FTensor::Tensor2_times_Tensor2&lt; A, B, T, U, Dim0, Dim1, Dim2, Dim3, i, j, k, l &gt;"
{
 // INTERACTIVE_SVG=YES
 // LATEX_PDF_SIZE
  edge [fontname="Helvetica",fontsize="10",labelfontname="Helvetica",labelfontsize="10"];
  node [fontname="Helvetica",fontsize="10",shape=record];
  Node1 [label="FTensor::Tensor2_times\l_Tensor2\< A, B, T, U,\l Dim0, Dim1, Dim2, Dim3,\l i, j, k, l \>",height=0.2,width=0.4,color="black", fillcolor="grey75", style="filled", fontcolor="black",tooltip=" "];
  Node2 -> Node1 [dir="back",color="darkorchid3",fontsize="10",style="dashed",label=" iterB" ,fontname="Helvetica"];
  Node2 [label="FTensor::Tensor2_Expr\l\< B, U, Dim2, Dim3, k, l \>",height=0.2,width=0.4,color="black", fillcolor="white", style="filled",URL="$class_f_tensor_1_1_tensor2___expr.html",tooltip=" "];
}
