digraph "Edge Element"
{
  edge [fontname="Helvetica",fontsize="10",labelfontname="Helvetica",labelfontsize="10"];
  node [fontname="Helvetica",fontsize="10",shape=box];
  rankdir=LR;
  Node2 [label="Forces and sources",height=0.2,width=0.4,color="black", fillcolor="white", style="filled",URL="$group__mofem__forces__and__sources.html",tooltip="Manages complexities related to assembly of vector and matrices at single finite element level."];
  Node1 [label="Edge Element",height=0.2,width=0.4,color="black", fillcolor="grey75", style="filled", fontcolor="black",tooltip="Implementation of edge element."];
  Node2->Node1 [shape=plaintext, dir="back", style="solid"];
}
