digraph "User modules"
{
  edge [fontname="Helvetica",fontsize="10",labelfontname="Helvetica",labelfontsize="10"];
  node [fontname="Helvetica",fontsize="10",shape=box];
  rankdir=LR;
  Node9 [label="Post Process",height=0.2,width=0.4,color="black", fillcolor="white", style="filled",URL="$group__mofem__fs__post__proc.html",tooltip=" "];
  Node7 [label="Dirichlet boundary\l conditions",height=0.2,width=0.4,color="black", fillcolor="white", style="filled",URL="$group___dirichlet__bc.html",tooltip=" "];
  Node3 [label="Arc-Length control",height=0.2,width=0.4,color="black", fillcolor="white", style="filled",URL="$group__arc__length__control.html",tooltip=" "];
  Node8 [label="NonLinear Elastic Element",height=0.2,width=0.4,color="black", fillcolor="white", style="filled",URL="$group__nonlinear__elastic__elem.html",tooltip=" "];
  Node5 [label="Constrain Projection\l Matrix",height=0.2,width=0.4,color="black", fillcolor="white", style="filled",URL="$group__projection__matrix.html",tooltip=" "];
  Node4 [label="Body forces elements",height=0.2,width=0.4,color="black", fillcolor="white", style="filled",URL="$group__mofem__body__forces.html",tooltip=" "];
  Node11 [label="Thermal element",height=0.2,width=0.4,color="black", fillcolor="white", style="filled",URL="$group__mofem__thermal__elem.html",tooltip=" "];
  Node10 [label="Pressure and force\l boundary",height=0.2,width=0.4,color="black", fillcolor="white", style="filled",URL="$group__mofem__static__boundary__conditions.html",tooltip="conditions"];
  Node6 [label="Mass Element",height=0.2,width=0.4,color="black", fillcolor="white", style="filled",URL="$group__convective__mass__elem.html",tooltip=" "];
  Node1 [label="User modules",height=0.2,width=0.4,color="black", fillcolor="grey75", style="filled", fontcolor="black",tooltip=" "];
  Node2 [label="Mix transport element",height=0.2,width=0.4,color="black", fillcolor="white", style="filled",URL="$group__mofem__mix__transport__elem.html",tooltip=" "];
  Node1->Node2 [shape=plaintext, dir="back", style="solid"];
  Node1->Node3 [shape=plaintext, dir="back", style="solid"];
  Node1->Node4 [shape=plaintext, dir="back", style="solid"];
  Node1->Node5 [shape=plaintext, dir="back", style="solid"];
  Node1->Node6 [shape=plaintext, dir="back", style="solid"];
  Node1->Node7 [shape=plaintext, dir="back", style="solid"];
  Node1->Node8 [shape=plaintext, dir="back", style="solid"];
  Node1->Node9 [shape=plaintext, dir="back", style="solid"];
  Node1->Node10 [shape=plaintext, dir="back", style="solid"];
  Node1->Node11 [shape=plaintext, dir="back", style="solid"];
  Node1->Node6 [shape=plaintext, label="ConvectiveMassElement\l::BlockData\nConvectiveMassElement\l::CommonData", color="orange", dir="none", style="dashed"];
}
