digraph "Graphical Class Hierarchy"
{
 // INTERACTIVE_SVG=YES
 // LATEX_PDF_SIZE
  edge [fontname="Helvetica",fontsize="10",labelfontname="Helvetica",labelfontsize="10"];
  node [fontname="Helvetica",fontsize="10",shape=record];
  rankdir="LR";
  Node0 [label="UserDataOperator",height=0.2,width=0.4,color="black", fillcolor="white", style="filled",URL="$class_mo_f_e_m_1_1_face_element_forces_and_sources_core_1_1_user_data_operator.html",tooltip=" "];
  Node0 -> Node1 [dir="back",color="midnightblue",fontsize="10",style="solid",fontname="Helvetica"];
  Node1 [label="AnalyticalDirichletBC\l::ApproxField::OpHoCoord",height=0.2,width=0.4,color="black", fillcolor="white", style="filled",URL="$struct_analytical_dirichlet_b_c_1_1_approx_field_1_1_op_ho_coord.html",tooltip=" "];
  Node0 -> Node2 [dir="back",color="midnightblue",fontsize="10",style="solid",fontname="Helvetica"];
  Node2 [label="AnalyticalDirichletBC\l::ApproxField::OpRhs\l\< FUNEVAL \>",height=0.2,width=0.4,color="black", fillcolor="white", style="filled",URL="$struct_analytical_dirichlet_b_c_1_1_approx_field_1_1_op_rhs.html",tooltip="Rhs operator used to build matrix."];
  Node0 -> Node3 [dir="back",color="midnightblue",fontsize="10",style="solid",fontname="Helvetica"];
  Node3 [label="FractureMechanics::\lOpSetTagRangeOnSkin",height=0.2,width=0.4,color="black", fillcolor="white", style="filled",URL="$struct_fracture_mechanics_1_1_op_set_tag_range_on_skin.html",tooltip="Mark crack surfaces on skin."];
  Node0 -> Node4 [dir="back",color="midnightblue",fontsize="10",style="solid",fontname="Helvetica"];
  Node4 [label="MagneticElement::OpNaturalBC",height=0.2,width=0.4,color="black", fillcolor="white", style="filled",URL="$struct_magnetic_element_1_1_op_natural_b_c.html",tooltip="calculate essential boundary conditions"];
  Node0 -> Node5 [dir="back",color="midnightblue",fontsize="10",style="solid",fontname="Helvetica"];
  Node5 [label="MixTransport::MixTransport\lElement::OpSkeleton",height=0.2,width=0.4,color="black", fillcolor="white", style="filled",URL="$struct_mix_transport_1_1_mix_transport_element_1_1_op_skeleton.html",tooltip="calculate jump on entities"];
  Node0 -> Node6 [dir="back",color="midnightblue",fontsize="10",style="solid",fontname="Helvetica"];
  Node6 [label="NeumannForcesSurfaceComplex\lForLazy::AuxMethodMaterial",height=0.2,width=0.4,color="black", fillcolor="white", style="filled",URL="$struct_neumann_forces_surface_complex_for_lazy_1_1_aux_method_material.html",tooltip=" "];
  Node0 -> Node7 [dir="back",color="midnightblue",fontsize="10",style="solid",fontname="Helvetica"];
  Node7 [label="NeumannForcesSurfaceComplex\lForLazy::AuxMethodSpatial",height=0.2,width=0.4,color="black", fillcolor="white", style="filled",URL="$struct_neumann_forces_surface_complex_for_lazy_1_1_aux_method_spatial.html",tooltip=" "];
  Node0 -> Node8 [dir="back",color="midnightblue",fontsize="10",style="solid",fontname="Helvetica"];
  Node8 [label="OpPressure",height=0.2,width=0.4,color="black", fillcolor="white", style="filled",URL="$struct_op_pressure.html",tooltip=" "];
  Node0 -> Node9 [dir="back",color="midnightblue",fontsize="10",style="solid",fontname="Helvetica"];
  Node9 [label="OpSpringFs",height=0.2,width=0.4,color="black", fillcolor="white", style="filled",URL="$struct_op_spring_fs.html",tooltip="Assemble contribution of springs to RHS *."];
  Node0 -> Node10 [dir="back",color="midnightblue",fontsize="10",style="solid",fontname="Helvetica"];
  Node10 [label="OpSpringKs",height=0.2,width=0.4,color="black", fillcolor="white", style="filled",URL="$struct_op_spring_ks.html",tooltip="Assemble contribution of spring to LHS *."];
  Node0 -> Node11 [dir="back",color="midnightblue",fontsize="10",style="solid",fontname="Helvetica"];
  Node11 [label="ThermalElement::OpConvectionRhs",height=0.2,width=0.4,color="black", fillcolor="white", style="filled",URL="$struct_thermal_element_1_1_op_convection_rhs.html",tooltip="operator to calculate convection therms on body surface and assemble to rhs of equations"];
  Node0 -> Node12 [dir="back",color="midnightblue",fontsize="10",style="solid",fontname="Helvetica"];
  Node12 [label="ThermalElement::OpRadiationLhs",height=0.2,width=0.4,color="black", fillcolor="white", style="filled",URL="$struct_thermal_element_1_1_op_radiation_lhs.html",tooltip=" "];
}
