digraph "Graphical Class Hierarchy"
{
 // INTERACTIVE_SVG=YES
 // LATEX_PDF_SIZE
  edge [fontname="Helvetica",fontsize="10",labelfontname="Helvetica",labelfontsize="10"];
  node [fontname="Helvetica",fontsize="10",shape=record];
  rankdir="LR";
  Node0 [label="FTensor::Dg_Expr\< const\l Christof\< A, Tensor_Dim0,\l Tensor_Dim12 \>, T, Dim12,\l Dim0, i, j, k \>",height=0.2,width=0.4,color="black", fillcolor="white", style="filled",URL="$class_f_tensor_1_1_dg___expr_3_01const_01_christof_3_01_a_00_01_tensor___dim0_00_01_tensor___dimeb11dcb2fcee175e6fe6a4a39f997164.html",tooltip=" "];
}
