digraph "Graphical Class Hierarchy"
{
 // INTERACTIVE_SVG=YES
 // LATEX_PDF_SIZE
  edge [fontname="Helvetica",fontsize="10",labelfontname="Helvetica",labelfontsize="10"];
  node [fontname="Helvetica",fontsize="10",shape=record];
  rankdir="LR";
  Node1486 [label="FractureMechanics::\lAnalyticalOptions",height=0.2,width=0.4,color="black", fillcolor="white", style="filled",URL="$struct_fracture_mechanics_1_1_analytical_options.html",tooltip=" "];
  Node1486 -> Node1487 [dir="back",color="midnightblue",fontsize="10",style="solid",fontname="Helvetica"];
  Node1487 [label="FractureMechanics::\lAnalyticalDisp",height=0.2,width=0.4,color="black", fillcolor="white", style="filled",URL="$struct_fracture_mechanics_1_1_analytical_disp.html",tooltip=" "];
  Node1486 -> Node0 [dir="back",color="midnightblue",fontsize="10",style="solid",fontname="Helvetica"];
  Node0 [label="FractureMechanics::\lAnalyticalForces",height=0.2,width=0.4,color="black", fillcolor="white", style="filled",URL="$struct_fracture_mechanics_1_1_analytical_forces.html",tooltip=" "];
  Node750 [label="MethodForAnalyticalForce",height=0.2,width=0.4,color="grey75", fillcolor="white", style="filled",tooltip=" "];
  Node750 -> Node0 [dir="back",color="midnightblue",fontsize="10",style="solid",fontname="Helvetica"];
}
