digraph "Graphical Class Hierarchy"
{
 // INTERACTIVE_SVG=YES
 // LATEX_PDF_SIZE
  edge [fontname="Helvetica",fontsize="10",labelfontname="Helvetica",labelfontsize="10"];
  node [fontname="Helvetica",fontsize="10",shape=record];
  rankdir="LR";
  Node0 [label="OpCalculateVectorFieldGradient",height=0.2,width=0.4,color="black", fillcolor="white", style="filled",URL="$class_op_calculate_vector_field_gradient.html",tooltip=" "];
  Node0 -> Node1 [dir="back",color="midnightblue",fontsize="10",style="solid",fontname="Helvetica"];
  Node1 [label="FractureMechanics::\lOpGetCrackFrontDataGradient\lAtGaussPts",height=0.2,width=0.4,color="black", fillcolor="white", style="filled",URL="$struct_fracture_mechanics_1_1_op_get_crack_front_data_gradient_at_gauss_pts.html",tooltip=" "];
}
