digraph "Graphical Class Hierarchy"
{
 // INTERACTIVE_SVG=YES
 // LATEX_PDF_SIZE
  edge [fontname="Helvetica",fontsize="10",labelfontname="Helvetica",labelfontsize="10"];
  node [fontname="Helvetica",fontsize="10",shape=record];
  rankdir="LR";
  Node0 [label="FTensor::Tensor4_Expr\l\< B, U, Dim0_1, Dim1\l_1, Dim2_1, Dim3_1, i1,\l j1, k1, l1 \>",height=0.2,width=0.4,color="black", fillcolor="white", style="filled",URL="$class_f_tensor_1_1_tensor4___expr.html",tooltip=" "];
}
