digraph "Graphical Class Hierarchy"
{
 // INTERACTIVE_SVG=YES
 // LATEX_PDF_SIZE
  edge [fontname="Helvetica",fontsize="10",labelfontname="Helvetica",labelfontsize="10"];
  node [fontname="Helvetica",fontsize="10",shape=record];
  rankdir="LR";
  Node0 [label="shared_ptr\< DofEntity \>",height=0.2,width=0.4,color="black", fillcolor="white", style="filled",URL="$classboost_1_1shared__ptr_3_01_dof_entity_01_4.html",tooltip=" "];
}
