digraph "Graphical Class Hierarchy"
{
 // INTERACTIVE_SVG=YES
 // LATEX_PDF_SIZE
  edge [fontname="Helvetica",fontsize="10",labelfontname="Helvetica",labelfontsize="10"];
  node [fontname="Helvetica",fontsize="10",shape=record];
  rankdir="LR";
  Node0 [label="MoFEM::CubitMeshSets\l_change_name",height=0.2,width=0.4,color="black", fillcolor="white", style="filled",URL="$struct_mo_f_e_m_1_1_cubit_mesh_sets__change__name.html",tooltip="change meshset name"];
}
