digraph "Graphical Class Hierarchy"
{
 // INTERACTIVE_SVG=YES
 // LATEX_PDF_SIZE
  edge [fontname="Helvetica",fontsize="10",labelfontname="Helvetica",labelfontsize="10"];
  node [fontname="Helvetica",fontsize="10",shape=record];
  rankdir="LR";
  Node0 [label="FTensor::Tensor2_symmetric\l_mod_Tensor2_symmetric\<\l A, B, T, U, Dim, Dim, i,\l j, j, i \>",height=0.2,width=0.4,color="black", fillcolor="white", style="filled",URL="$class_f_tensor_1_1_tensor2__symmetric__mod___tensor2__symmetric_3_01_a_00_01_b_00_01_t_00_01_u_035ffa72d38aa2e4ffb03ef384de0ce95.html",tooltip=" "];
}
