digraph "Graphical Class Hierarchy"
{
 // INTERACTIVE_SVG=YES
 // LATEX_PDF_SIZE
  edge [fontname="Helvetica",fontsize="10",labelfontname="Helvetica",labelfontsize="10"];
  node [fontname="Helvetica",fontsize="10",shape=record];
  rankdir="LR";
  Node0 [label="FTensor::Tensor3_plus\l_Tensor3\< A, B, T, U,\l Dim0_0, Dim1_0, Dim2\l_0, Dim0_1, Dim1_1, Dim2\l_1, i0, j0, k0, i1, j1, k1 \>",height=0.2,width=0.4,color="black", fillcolor="white", style="filled",URL="$class_f_tensor_1_1_tensor3__plus___tensor3.html",tooltip=" "];
}
