digraph "Graphical Class Hierarchy"
{
 // INTERACTIVE_SVG=YES
 // LATEX_PDF_SIZE
  edge [fontname="Helvetica",fontsize="10",labelfontname="Helvetica",labelfontsize="10"];
  node [fontname="Helvetica",fontsize="10",shape=record];
  rankdir="LR";
  Node0 [label="NeumannForcesSurface\l::bCForce",height=0.2,width=0.4,color="black", fillcolor="white", style="filled",URL="$struct_neumann_forces_surface_1_1b_c_force.html",tooltip=" "];
}
