digraph "Graphical Class Hierarchy"
{
 // INTERACTIVE_SVG=YES
 // LATEX_PDF_SIZE
  edge [fontname="Helvetica",fontsize="10",labelfontname="Helvetica",labelfontsize="10"];
  node [fontname="Helvetica",fontsize="10",shape=record];
  rankdir="LR";
  Node0 [label="FTensor::Tensor3_plus\l_Tensor3\< A, B, T, U,\l Dim0, Dim1, Dim2, Dim0,\l Dim1, Dim2, i, j, k, i,\l j, k \>",height=0.2,width=0.4,color="black", fillcolor="white", style="filled",URL="$class_f_tensor_1_1_tensor3__plus___tensor3_3_01_a_00_01_b_00_01_t_00_01_u_00_01_dim0_00_01_dim1_468a5ce93558699c14613cbf4c774a71.html",tooltip=" "];
}
