digraph "Graphical Class Hierarchy"
{
 // INTERACTIVE_SVG=YES
 // LATEX_PDF_SIZE
  edge [fontname="Helvetica",fontsize="10",labelfontname="Helvetica",labelfontsize="10"];
  node [fontname="Helvetica",fontsize="10",shape=record];
  rankdir="LR";
  Node0 [label="FTensor::Tensor4_times\l_Tensor2_0_1\< A, B, T,\l U, Dim0, Dim1, Dim2, Dim3,\l Dim4, i, j, k, l, m \>",height=0.2,width=0.4,color="black", fillcolor="white", style="filled",URL="$class_f_tensor_1_1_tensor4__times___tensor2__0__1.html",tooltip=" "];
}
