digraph "Graphical Class Hierarchy"
{
 // INTERACTIVE_SVG=YES
 // LATEX_PDF_SIZE
  edge [fontname="Helvetica",fontsize="10",labelfontname="Helvetica",labelfontsize="10"];
  node [fontname="Helvetica",fontsize="10",shape=record];
  rankdir="LR";
  Node0 [label="FTensor::minus_Ddg\l\< A, T, Dim01, Dim23,\l i, j, k, l \>",height=0.2,width=0.4,color="black", fillcolor="white", style="filled",URL="$class_f_tensor_1_1minus___ddg.html",tooltip=" "];
}
