digraph "Graphical Class Hierarchy"
{
 // INTERACTIVE_SVG=YES
 // LATEX_PDF_SIZE
  edge [fontname="Helvetica",fontsize="10",labelfontname="Helvetica",labelfontsize="10"];
  node [fontname="Helvetica",fontsize="10",shape=record];
  rankdir="LR";
  Node0 [label="FTensor::Tensor2_symmetric\l_minus_Tensor2\< A, B, T,\l U, Dim, Dim, Dim, i, j, i, j \>",height=0.2,width=0.4,color="black", fillcolor="white", style="filled",URL="$class_f_tensor_1_1_tensor2__symmetric__minus___tensor2_3_01_a_00_01_b_00_01_t_00_01_u_00_01_dim_d78ac4f11578dcd7883c76a4ea21005a.html",tooltip=" "];
}
