digraph "Graphical Class Hierarchy"
{
 // INTERACTIVE_SVG=YES
 // LATEX_PDF_SIZE
  edge [fontname="Helvetica",fontsize="10",labelfontname="Helvetica",labelfontsize="10"];
  node [fontname="Helvetica",fontsize="10",shape=record];
  rankdir="LR";
  Node0 [label="MixTransport::Unsaturated\lFlowElement::postProcessVol",height=0.2,width=0.4,color="black", fillcolor="white", style="filled",URL="$struct_mix_transport_1_1_unsaturated_flow_element_1_1post_process_vol.html",tooltip="Post proces method for volume element Assemble vectors and matrices and apply essential boundary cond..."];
}
