digraph "Graphical Class Hierarchy"
{
 // INTERACTIVE_SVG=YES
 // LATEX_PDF_SIZE
  edge [fontname="Helvetica",fontsize="10",labelfontname="Helvetica",labelfontsize="10"];
  node [fontname="Helvetica",fontsize="10",shape=record];
  rankdir="LR";
  Node0 [label="MixTransport::Unsaturated\lFlowElement::preProcessVol",height=0.2,width=0.4,color="black", fillcolor="white", style="filled",URL="$struct_mix_transport_1_1_unsaturated_flow_element_1_1pre_process_vol.html",tooltip="Pre-peprocessing Set head pressute rate and get inital essential boundary conditions."];
}
