digraph "Graphical Class Hierarchy"
{
 // INTERACTIVE_SVG=YES
 // LATEX_PDF_SIZE
  edge [fontname="Helvetica",fontsize="10",labelfontname="Helvetica",labelfontsize="10"];
  node [fontname="Helvetica",fontsize="10",shape=record];
  rankdir="LR";
  Node0 [label="MoFEM::NumeredDofEntity\l_part_and_mofem_glob_idx\l_change",height=0.2,width=0.4,color="black", fillcolor="white", style="filled",URL="$struct_mo_f_e_m_1_1_numered_dof_entity__part__and__mofem__glob__idx__change.html",tooltip=" "];
}
