digraph "Graphical Class Hierarchy"
{
 // INTERACTIVE_SVG=YES
 // LATEX_PDF_SIZE
  edge [fontname="Helvetica",fontsize="10",labelfontname="Helvetica",labelfontsize="10"];
  node [fontname="Helvetica",fontsize="10",shape=record];
  rankdir="LR";
  Node35 [label="UserDataOperator",height=0.2,width=0.4,color="grey75", fillcolor="white", style="filled",tooltip=" "];
  Node35 -> Node0 [dir="back",color="midnightblue",fontsize="10",style="solid",fontname="Helvetica"];
  Node0 [label="CohesiveElement::Cohesive\lInterfaceElement::OpCalculateGap\lGlobal",height=0.2,width=0.4,color="black", fillcolor="white", style="filled",URL="$struct_cohesive_element_1_1_cohesive_interface_element_1_1_op_calculate_gap_global.html",tooltip="Operator calculate gap, normal vector and rotation matrix."];
  Node35 -> Node37 [dir="back",color="midnightblue",fontsize="10",style="solid",fontname="Helvetica"];
  Node37 [label="CohesiveElement::Cohesive\lInterfaceElement::OpCalculateGapLocal",height=0.2,width=0.4,color="black", fillcolor="white", style="filled",URL="$struct_cohesive_element_1_1_cohesive_interface_element_1_1_op_calculate_gap_local.html",tooltip="Operator calculate gap in local coordinate system."];
  Node35 -> Node38 [dir="back",color="midnightblue",fontsize="10",style="solid",fontname="Helvetica"];
  Node38 [label="CohesiveElement::Cohesive\lInterfaceElement::OpHistory",height=0.2,width=0.4,color="black", fillcolor="white", style="filled",URL="$struct_cohesive_element_1_1_cohesive_interface_element_1_1_op_history.html",tooltip="Operator update history variables."];
  Node35 -> Node39 [dir="back",color="midnightblue",fontsize="10",style="solid",fontname="Helvetica"];
  Node39 [label="CohesiveElement::Cohesive\lInterfaceElement::OpLhs",height=0.2,width=0.4,color="black", fillcolor="white", style="filled",URL="$struct_cohesive_element_1_1_cohesive_interface_element_1_1_op_lhs.html",tooltip="Operator calculate element stiffens matrix."];
  Node35 -> Node40 [dir="back",color="midnightblue",fontsize="10",style="solid",fontname="Helvetica"];
  Node40 [label="CohesiveElement::Cohesive\lInterfaceElement::OpRhs",height=0.2,width=0.4,color="black", fillcolor="white", style="filled",URL="$struct_cohesive_element_1_1_cohesive_interface_element_1_1_op_rhs.html",tooltip="Operator calculate right hand side vector."];
  Node35 -> Node41 [dir="back",color="midnightblue",fontsize="10",style="solid",fontname="Helvetica"];
  Node41 [label="CohesiveElement::Cohesive\lInterfaceElement::OpSetSignToShape\lFunctions",height=0.2,width=0.4,color="black", fillcolor="white", style="filled",URL="$struct_cohesive_element_1_1_cohesive_interface_element_1_1_op_set_sign_to_shape_functions.html",tooltip="Set negative sign to shape functions on face 4."];
}
