digraph "Graphical Class Hierarchy"
{
 // INTERACTIVE_SVG=YES
 // LATEX_PDF_SIZE
  edge [fontname="Helvetica",fontsize="10",labelfontname="Helvetica",labelfontsize="10"];
  node [fontname="Helvetica",fontsize="10",shape=record];
  rankdir="LR";
  Node0 [label="std::enable_if\< true, T \>",height=0.2,width=0.4,color="black", fillcolor="white", style="filled",URL="$structstd_1_1enable__if_3_01true_00_01_t_01_4.html",tooltip=" "];
}
