digraph "Graphical Class Hierarchy"
{
 // INTERACTIVE_SVG=YES
 // LATEX_PDF_SIZE
  edge [fontname="Helvetica",fontsize="10",labelfontname="Helvetica",labelfontsize="10"];
  node [fontname="Helvetica",fontsize="10",shape=record];
  rankdir="LR";
  Node0 [label="ArcLengthCtx",height=0.2,width=0.4,color="black", fillcolor="white", style="filled",URL="$struct_arc_length_ctx.html",tooltip="Store variables for ArcLength analysis."];
}
