digraph "Graphical Class Hierarchy"
{
 // INTERACTIVE_SVG=YES
 // LATEX_PDF_SIZE
  edge [fontname="Helvetica",fontsize="10",labelfontname="Helvetica",labelfontsize="10"];
  node [fontname="Helvetica",fontsize="10",shape=record];
  rankdir="LR";
  Node0 [label="MoFEM::DataForcesAndSources\lCore::EntData",height=0.2,width=0.4,color="black", fillcolor="white", style="filled",URL="$struct_mo_f_e_m_1_1_data_forces_and_sources_core_1_1_ent_data.html",tooltip="Data on single entity (This is passed as argument to DataOperator::doWork)"];
  Node0 -> Node1 [dir="back",color="midnightblue",fontsize="10",style="solid",fontname="Helvetica"];
  Node1 [label="MoFEM::DerivedDataForces\lAndSourcesCore::DerivedEntData",height=0.2,width=0.4,color="black", fillcolor="white", style="filled",URL="$struct_mo_f_e_m_1_1_derived_data_forces_and_sources_core_1_1_derived_ent_data.html",tooltip="Derived ata on single entity (This is passed as argument to DataOperator::doWork)"];
}
