digraph "Graphical Class Hierarchy"
{
 // INTERACTIVE_SVG=YES
 // LATEX_PDF_SIZE
  edge [fontname="Helvetica",fontsize="10",labelfontname="Helvetica",labelfontsize="10"];
  node [fontname="Helvetica",fontsize="10",shape=record];
  rankdir="LR";
  Node0 [label="FTensor::Tensor3_antisymmetric\l_Expr\< Tensor3_antisymmetric\l\< A, Dim0, Dim12 \>, T, Dim0,\l Dim12, i, j, k \>",height=0.2,width=0.4,color="black", fillcolor="white", style="filled",URL="$class_f_tensor_1_1_tensor3__antisymmetric___expr_3_01_tensor3__antisymmetric_3_01_a_00_01_dim0_0f9c0a35b22804f12921a4057a6f25216.html",tooltip=" "];
}
