digraph "Graphical Class Hierarchy"
{
 // INTERACTIVE_SVG=YES
 // LATEX_PDF_SIZE
  edge [fontname="Helvetica",fontsize="10",labelfontname="Helvetica",labelfontsize="10"];
  node [fontname="Helvetica",fontsize="10",shape=record];
  rankdir="LR";
  Node0 [label="CohesiveElement::Cohesive\lInterfaceElement::PhysicalEquation",height=0.2,width=0.4,color="black", fillcolor="white", style="filled",URL="$struct_cohesive_element_1_1_cohesive_interface_element_1_1_physical_equation.html",tooltip="Constitutive (physical) equation for interface."];
}
