digraph "Graphical Class Hierarchy"
{
 // INTERACTIVE_SVG=YES
 // LATEX_PDF_SIZE
  edge [fontname="Helvetica",fontsize="10",labelfontname="Helvetica",labelfontsize="10"];
  node [fontname="Helvetica",fontsize="10",shape=record];
  rankdir="LR";
  Node0 [label="MoFEM::SetBitRefLevelTool",height=0.2,width=0.4,color="black", fillcolor="white", style="filled",URL="$struct_mo_f_e_m_1_1_set_bit_ref_level_tool.html",tooltip="tool class with methods used more than twp times"];
}
