digraph "ConvectiveMassElement::OpMassLhs_dM_dX"
{
 // INTERACTIVE_SVG=YES
 // LATEX_PDF_SIZE
  edge [fontname="Helvetica",fontsize="10",labelfontname="Helvetica",labelfontsize="10"];
  node [fontname="Helvetica",fontsize="10",shape=record];
  Node1 [label="ConvectiveMassElement\l::OpMassLhs_dM_dX",height=0.2,width=0.4,color="black", fillcolor="grey75", style="filled", fontcolor="black",tooltip=" "];
  Node2 -> Node1 [dir="back",color="midnightblue",fontsize="10",style="solid",fontname="Helvetica"];
  Node2 [label="ConvectiveMassElement\l::OpMassLhs_dM_dv",height=0.2,width=0.4,color="black", fillcolor="white", style="filled",URL="$struct_convective_mass_element_1_1_op_mass_lhs__d_m__dv.html",tooltip=" "];
  Node3 -> Node2 [dir="back",color="midnightblue",fontsize="10",style="solid",fontname="Helvetica"];
  Node3 [label="ConvectiveMassElement\l::CommonFunctions",height=0.2,width=0.4,color="black", fillcolor="white", style="filled",URL="$struct_convective_mass_element_1_1_common_functions.html",tooltip=" "];
}
