digraph "MoFEM::FieldEvaluatorInterface::SetPtsData"
{
 // INTERACTIVE_SVG=YES
 // LATEX_PDF_SIZE
  edge [fontname="Helvetica",fontsize="10",labelfontname="Helvetica",labelfontsize="10"];
  node [fontname="Helvetica",fontsize="10",shape=record];
  Node1 [label="MoFEM::FieldEvaluatorInterface\l::SetPtsData",height=0.2,width=0.4,color="black", fillcolor="grey75", style="filled", fontcolor="black",tooltip=" "];
  Node2 -> Node1 [dir="back",color="darkorchid3",fontsize="10",style="dashed",label=" rooTreeSet" ,fontname="Helvetica"];
  Node2 [label="EntityHandle",height=0.2,width=0.4,color="black", fillcolor="white", style="filled",URL="$class_entity_handle.html",tooltip=" "];
  Node3 -> Node1 [dir="back",color="darkorchid3",fontsize="10",style="dashed",label=" eps\nevalPoints" ,fontname="Helvetica"];
  Node3 [label="double",height=0.2,width=0.4,color="black", fillcolor="white", style="filled",URL="$classdouble.html",tooltip=" "];
}
