digraph "MoFEM::RefElement_MESHSET"
{
 // INTERACTIVE_SVG=YES
 // LATEX_PDF_SIZE
  edge [fontname="Helvetica",fontsize="10",labelfontname="Helvetica",labelfontsize="10"];
  node [fontname="Helvetica",fontsize="10",shape=record];
  Node1 [label="MoFEM::RefElement_MESHSET",height=0.2,width=0.4,color="black", fillcolor="grey75", style="filled", fontcolor="black",tooltip="keeps data about abstract MESHSET finite element"];
  Node2 -> Node1 [dir="back",color="midnightblue",fontsize="10",style="solid",fontname="Helvetica"];
  Node2 [label="MoFEM::RefElement",height=0.2,width=0.4,color="black", fillcolor="white", style="filled",URL="$struct_mo_f_e_m_1_1_ref_element.html",tooltip="keeps data about abstract refined finite element"];
  Node3 -> Node2 [dir="back",color="midnightblue",fontsize="10",style="solid",fontname="Helvetica"];
  Node3 [label="MoFEM::interface_RefEntity\l\< RefEntity \>",height=0.2,width=0.4,color="black", fillcolor="white", style="filled",URL="$struct_mo_f_e_m_1_1interface___ref_entity.html",tooltip=" "];
  Node4 -> Node3 [dir="back",color="darkorchid3",fontsize="10",style="dashed",label=" sPtr" ,fontname="Helvetica"];
  Node4 [label="shared_ptr\< RefEntity \>",height=0.2,width=0.4,color="black", fillcolor="white", style="filled",URL="$classboost_1_1shared__ptr_3_01_ref_entity_01_4.html",tooltip=" "];
}
