digraph "MoFEM::BasicMethod"
{
 // INTERACTIVE_SVG=YES
 // LATEX_PDF_SIZE
  edge [fontname="Helvetica",fontsize="10",labelfontname="Helvetica",labelfontsize="10"];
  node [fontname="Helvetica",fontsize="10",shape=record];
  Node1 [label="MoFEM::BasicMethod",height=0.2,width=0.4,color="black", fillcolor="grey75", style="filled", fontcolor="black",tooltip="Data structure to exchange data between mofem and User Loop Methods."];
  Node2 -> Node1 [dir="back",color="midnightblue",fontsize="10",style="solid",fontname="Helvetica"];
  Node2 [label="MoFEM::KspMethod",height=0.2,width=0.4,color="black", fillcolor="white", style="filled",URL="$struct_mo_f_e_m_1_1_ksp_method.html",tooltip="data structure for ksp (linear solver) context"];
  Node3 -> Node2 [dir="back",color="midnightblue",fontsize="10",style="solid",fontname="Helvetica"];
  Node3 [label="MoFEM::UnknownInterface",height=0.2,width=0.4,color="black", fillcolor="white", style="filled",URL="$struct_mo_f_e_m_1_1_unknown_interface.html",tooltip="base class for all interface classes"];
  Node4 -> Node1 [dir="back",color="midnightblue",fontsize="10",style="solid",fontname="Helvetica"];
  Node4 [label="MoFEM::SnesMethod",height=0.2,width=0.4,color="black", fillcolor="white", style="filled",URL="$struct_mo_f_e_m_1_1_snes_method.html",tooltip="data structure for snes (nonlinear solver) context"];
  Node3 -> Node4 [dir="back",color="midnightblue",fontsize="10",style="solid",fontname="Helvetica"];
  Node5 -> Node1 [dir="back",color="midnightblue",fontsize="10",style="solid",fontname="Helvetica"];
  Node5 [label="MoFEM::TSMethod",height=0.2,width=0.4,color="black", fillcolor="white", style="filled",URL="$struct_mo_f_e_m_1_1_t_s_method.html",tooltip="data structure for TS (time stepping) context"];
  Node3 -> Node5 [dir="back",color="midnightblue",fontsize="10",style="solid",fontname="Helvetica"];
  Node6 -> Node1 [dir="back",color="darkorchid3",fontsize="10",style="dashed",label=" problemPtr" ,fontname="Helvetica"];
  Node6 [label="MoFEM::Problem",height=0.2,width=0.4,color="black", fillcolor="white", style="filled",URL="$struct_mo_f_e_m_1_1_problem.html",tooltip="keeps basic data about problem"];
  Node7 -> Node6 [dir="back",color="darkorchid3",fontsize="10",style="dashed",label=" meshset" ,fontname="Helvetica"];
  Node7 [label="EntityHandle",height=0.2,width=0.4,color="black", fillcolor="white", style="filled",URL="$class_entity_handle.html",tooltip=" "];
}
