digraph "ConvectiveMassElement::OpGetCommonDataAtGaussPts"
{
 // INTERACTIVE_SVG=YES
 // LATEX_PDF_SIZE
  edge [fontname="Helvetica",fontsize="10",labelfontname="Helvetica",labelfontsize="10"];
  node [fontname="Helvetica",fontsize="10",shape=record];
  Node1 [label="ConvectiveMassElement\l::OpGetCommonDataAtGaussPts",height=0.2,width=0.4,color="black", fillcolor="grey75", style="filled", fontcolor="black",tooltip=" "];
  Node2 -> Node1 [dir="back",color="midnightblue",fontsize="10",style="solid",fontname="Helvetica"];
  Node2 [label="ConvectiveMassElement\l::OpGetDataAtGaussPts",height=0.2,width=0.4,color="black", fillcolor="white", style="filled",URL="$struct_convective_mass_element_1_1_op_get_data_at_gauss_pts.html",tooltip=" "];
}
