digraph "OpFlux"
{
 // INTERACTIVE_SVG=YES
 // LATEX_PDF_SIZE
  edge [fontname="Helvetica",fontsize="10",labelfontname="Helvetica",labelfontsize="10"];
  node [fontname="Helvetica",fontsize="10",shape=record];
  Node1 [label="OpFlux",height=0.2,width=0.4,color="black", fillcolor="grey75", style="filled", fontcolor="black",tooltip=" "];
  Node2 -> Node1 [dir="back",color="midnightblue",fontsize="10",style="solid",fontname="Helvetica"];
  Node2 [label="EdgeEleOp",height=0.2,width=0.4,color="black", fillcolor="white", style="filled",URL="$class_edge_ele_op.html",tooltip=" "];
  Node3 -> Node1 [dir="back",color="darkorchid3",fontsize="10",style="dashed",label=" fLux" ,fontname="Helvetica"];
  Node3 [label="double",height=0.2,width=0.4,color="black", fillcolor="white", style="filled",URL="$classdouble.html",tooltip=" "];
  Node4 -> Node1 [dir="back",color="darkorchid3",fontsize="10",style="dashed",label=" i" ,fontname="Helvetica"];
  Node4 [label="FTensor::Index\< 'i', 3 \>",height=0.2,width=0.4,color="black", fillcolor="white", style="filled",URL="$class_f_tensor_1_1_index.html",tooltip=" "];
}
