digraph "SurfaceSlidingConstrains::MyTriangleFE"
{
 // INTERACTIVE_SVG=YES
 // LATEX_PDF_SIZE
  edge [fontname="Helvetica",fontsize="10",labelfontname="Helvetica",labelfontsize="10"];
  node [fontname="Helvetica",fontsize="10",shape=record];
  rankdir="LR";
  Node1 [label="SurfaceSlidingConstrains\l::MyTriangleFE",height=0.2,width=0.4,color="black", fillcolor="grey75", style="filled", fontcolor="black",tooltip=" "];
  Node2 -> Node1 [dir="back",color="midnightblue",fontsize="10",style="solid",fontname="Helvetica"];
  Node2 [label="MoFEM::FaceElementForces\lAndSourcesCore",height=0.2,width=0.4,color="black", fillcolor="white", style="filled",URL="$struct_mo_f_e_m_1_1_face_element_forces_and_sources_core_switch.html",tooltip="Face finite element switched."];
  Node3 -> Node2 [dir="back",color="midnightblue",fontsize="10",style="solid",fontname="Helvetica"];
  Node3 [label="MoFEM::FaceElementForces\lAndSourcesCoreBase",height=0.2,width=0.4,color="black", fillcolor="white", style="filled",URL="$struct_mo_f_e_m_1_1_face_element_forces_and_sources_core_base.html",tooltip="Face finite element."];
  Node4 -> Node3 [dir="back",color="midnightblue",fontsize="10",style="solid",fontname="Helvetica"];
  Node4 [label="MoFEM::ForcesAndSourcesCore",height=0.2,width=0.4,color="black", fillcolor="white", style="filled",URL="$struct_mo_f_e_m_1_1_forces_and_sources_core.html",tooltip="structure to get information form mofem into DataForcesAndSourcesCore"];
  Node5 -> Node4 [dir="back",color="midnightblue",fontsize="10",style="solid",fontname="Helvetica"];
  Node5 [label="MoFEM::FEMethod",height=0.2,width=0.4,color="black", fillcolor="white", style="filled",URL="$struct_mo_f_e_m_1_1_f_e_method.html",tooltip="structure for User Loop Methods on finite elements"];
  Node6 -> Node5 [dir="back",color="midnightblue",fontsize="10",style="solid",fontname="Helvetica"];
  Node6 [label="MoFEM::BasicMethod",height=0.2,width=0.4,color="black", fillcolor="white", style="filled",URL="$struct_mo_f_e_m_1_1_basic_method.html",tooltip="Data structure to exchange data between mofem and User Loop Methods."];
  Node7 -> Node6 [dir="back",color="midnightblue",fontsize="10",style="solid",fontname="Helvetica"];
  Node7 [label="MoFEM::KspMethod",height=0.2,width=0.4,color="black", fillcolor="white", style="filled",URL="$struct_mo_f_e_m_1_1_ksp_method.html",tooltip="data structure for ksp (linear solver) context"];
  Node8 -> Node7 [dir="back",color="midnightblue",fontsize="10",style="solid",fontname="Helvetica"];
  Node8 [label="MoFEM::UnknownInterface",height=0.2,width=0.4,color="black", fillcolor="white", style="filled",URL="$struct_mo_f_e_m_1_1_unknown_interface.html",tooltip="base class for all interface classes"];
  Node9 -> Node6 [dir="back",color="midnightblue",fontsize="10",style="solid",fontname="Helvetica"];
  Node9 [label="MoFEM::SnesMethod",height=0.2,width=0.4,color="black", fillcolor="white", style="filled",URL="$struct_mo_f_e_m_1_1_snes_method.html",tooltip="data structure for snes (nonlinear solver) context"];
  Node8 -> Node9 [dir="back",color="midnightblue",fontsize="10",style="solid",fontname="Helvetica"];
  Node10 -> Node6 [dir="back",color="midnightblue",fontsize="10",style="solid",fontname="Helvetica"];
  Node10 [label="MoFEM::TSMethod",height=0.2,width=0.4,color="black", fillcolor="white", style="filled",URL="$struct_mo_f_e_m_1_1_t_s_method.html",tooltip="data structure for TS (time stepping) context"];
  Node8 -> Node10 [dir="back",color="midnightblue",fontsize="10",style="solid",fontname="Helvetica"];
  Node11 -> Node6 [dir="back",color="darkorchid3",fontsize="10",style="dashed",label=" problemPtr" ,fontname="Helvetica"];
  Node11 [label="MoFEM::Problem",height=0.2,width=0.4,color="black", fillcolor="white", style="filled",URL="$struct_mo_f_e_m_1_1_problem.html",tooltip="keeps basic data about problem"];
  Node12 -> Node11 [dir="back",color="darkorchid3",fontsize="10",style="dashed",label=" meshset" ,fontname="Helvetica"];
  Node12 [label="EntityHandle",height=0.2,width=0.4,color="black", fillcolor="white", style="filled",URL="$class_entity_handle.html",tooltip=" "];
  Node13 -> Node4 [dir="back",color="darkorchid3",fontsize="10",style="dashed",label=" dataNoField\ndataL2\ndataH1\ndataHcurl\ndataHdiv" ,fontname="Helvetica"];
  Node13 [label="MoFEM::DataForcesAndSourcesCore",height=0.2,width=0.4,color="black", fillcolor="white", style="filled",URL="$struct_mo_f_e_m_1_1_data_forces_and_sources_core.html",tooltip="data structure for finite element entity"];
  Node4 -> Node4 [dir="back",color="darkorchid3",fontsize="10",style="dashed",label=" sidePtrFE" ,fontname="Helvetica"];
  Node14 -> Node4 [dir="back",color="darkorchid3",fontsize="10",style="dashed",label=" mField" ,fontname="Helvetica"];
  Node14 [label="MoFEM::Interface",height=0.2,width=0.4,color="black", fillcolor="white", style="filled",URL="$struct_mo_f_e_m_1_1_interface.html",tooltip=" "];
  Node15 -> Node14 [dir="back",color="midnightblue",fontsize="10",style="solid",fontname="Helvetica"];
  Node15 [label="MoFEM::DeprecatedCoreInterface",height=0.2,width=0.4,color="black", fillcolor="white", style="filled",URL="$struct_mo_f_e_m_1_1_deprecated_core_interface.html",tooltip="Deprecated interface functions."];
  Node16 -> Node15 [dir="back",color="midnightblue",fontsize="10",style="solid",fontname="Helvetica"];
  Node16 [label="MoFEM::CoreInterface",height=0.2,width=0.4,color="black", fillcolor="white", style="filled",URL="$struct_mo_f_e_m_1_1_core_interface.html",tooltip="Interface."];
  Node8 -> Node16 [dir="back",color="midnightblue",fontsize="10",style="solid",fontname="Helvetica"];
  Node12 -> Node3 [dir="back",color="darkorchid3",fontsize="10",style="dashed",label=" conn" ,fontname="Helvetica"];
  Node17 -> Node3 [dir="back",color="darkorchid3",fontsize="10",style="dashed",label=" aRea" ,fontname="Helvetica"];
  Node17 [label="double",height=0.2,width=0.4,color="black", fillcolor="white", style="filled",URL="$classdouble.html",tooltip=" "];
  Node18 -> Node3 [dir="back",color="darkorchid3",fontsize="10",style="dashed",label=" opContravariantTransform" ,fontname="Helvetica"];
  Node18 [label="MoFEM::OpSetContravariant\lPiolaTransformOnFace",height=0.2,width=0.4,color="black", fillcolor="white", style="filled",URL="$struct_mo_f_e_m_1_1_op_set_contravariant_piola_transform_on_face.html",tooltip="transform Hdiv base fluxes from reference element to physical triangle"];
  Node19 -> Node18 [dir="back",color="midnightblue",fontsize="10",style="solid",fontname="Helvetica"];
  Node19 [label="MoFEM::DataOperator",height=0.2,width=0.4,color="black", fillcolor="white", style="filled",URL="$struct_mo_f_e_m_1_1_data_operator.html",tooltip="base operator to do operations at Gauss Pt. level"];
  Node20 -> Node19 [dir="back",color="darkorchid3",fontsize="10",style="dashed",label=" doTris\ndoQuads\nsYmm\ndoPrisms\ndoTets\ndoVertices\ndoEdges" ,fontname="Helvetica"];
  Node20 [label="bool",height=0.2,width=0.4,color="black", fillcolor="white", style="filled",URL="$classbool.html",tooltip=" "];
  Node21 -> Node3 [dir="back",color="darkorchid3",fontsize="10",style="dashed",label=" opCovariantTransform" ,fontname="Helvetica"];
  Node21 [label="MoFEM::OpSetCovariantPiola\lTransformOnFace",height=0.2,width=0.4,color="black", fillcolor="white", style="filled",URL="$struct_mo_f_e_m_1_1_op_set_covariant_piola_transform_on_face.html",tooltip="transform Hcurl base fluxes from reference element to physical triangle"];
  Node19 -> Node21 [dir="back",color="midnightblue",fontsize="10",style="solid",fontname="Helvetica"];
  Node22 -> Node3 [dir="back",color="darkorchid3",fontsize="10",style="dashed",label=" opHOCoordsAndNormals" ,fontname="Helvetica"];
  Node22 [label="MoFEM::OpGetCoordsAndNormals\lOnFace",height=0.2,width=0.4,color="black", fillcolor="white", style="filled",URL="$struct_mo_f_e_m_1_1_op_get_coords_and_normals_on_face.html",tooltip="Calculate normals at Gauss points of triangle element."];
  Node19 -> Node22 [dir="back",color="midnightblue",fontsize="10",style="solid",fontname="Helvetica"];
}
