digraph "ConvectiveMassElement::OpMassLhs_dM_dx"
{
 // INTERACTIVE_SVG=YES
 // LATEX_PDF_SIZE
  edge [fontname="Helvetica",fontsize="10",labelfontname="Helvetica",labelfontsize="10"];
  node [fontname="Helvetica",fontsize="10",shape=record];
  rankdir="LR";
  Node1 [label="ConvectiveMassElement\l::OpMassLhs_dM_dx",height=0.2,width=0.4,color="black", fillcolor="grey75", style="filled", fontcolor="black",tooltip=" "];
  Node2 -> Node1 [dir="back",color="midnightblue",fontsize="10",style="solid",fontname="Helvetica"];
  Node2 [label="ConvectiveMassElement\l::OpMassLhs_dM_dv",height=0.2,width=0.4,color="black", fillcolor="white", style="filled",URL="$struct_convective_mass_element_1_1_op_mass_lhs__d_m__dv.html",tooltip=" "];
  Node3 -> Node2 [dir="back",color="midnightblue",fontsize="10",style="solid",fontname="Helvetica"];
  Node3 [label="ConvectiveMassElement\l::CommonFunctions",height=0.2,width=0.4,color="black", fillcolor="white", style="filled",URL="$struct_convective_mass_element_1_1_common_functions.html",tooltip=" "];
  Node4 -> Node2 [dir="back",color="darkorchid3",fontsize="10",style="dashed",label=" k\njac" ,fontname="Helvetica"];
  Node4 [label="MatrixDouble",height=0.2,width=0.4,color="black", fillcolor="white", style="filled",URL="$class_matrix_double.html",tooltip=" "];
  Node5 -> Node2 [dir="back",color="darkorchid3",fontsize="10",style="dashed",label=" dAta" ,fontname="Helvetica"];
  Node5 [label="ConvectiveMassElement\l::BlockData",height=0.2,width=0.4,color="black", fillcolor="white", style="filled",URL="$struct_convective_mass_element_1_1_block_data.html",tooltip="data for calculation inertia forces"];
  Node6 -> Node5 [dir="back",color="darkorchid3",fontsize="10",style="dashed",label=" rho0" ,fontname="Helvetica"];
  Node6 [label="double",height=0.2,width=0.4,color="black", fillcolor="white", style="filled",URL="$classdouble.html",tooltip=" "];
  Node7 -> Node2 [dir="back",color="darkorchid3",fontsize="10",style="dashed",label=" commonData" ,fontname="Helvetica"];
  Node7 [label="ConvectiveMassElement\l::CommonData",height=0.2,width=0.4,color="black", fillcolor="white", style="filled",URL="$struct_convective_mass_element_1_1_common_data.html",tooltip="common data used by volume elements"];
  Node8 -> Node7 [dir="back",color="darkorchid3",fontsize="10",style="dashed",label=" lInear\nstaticOnly" ,fontname="Helvetica"];
  Node8 [label="bool",height=0.2,width=0.4,color="black", fillcolor="white", style="filled",URL="$classbool.html",tooltip=" "];
}
