digraph "PoissonExample::OpKt"
{
 // INTERACTIVE_SVG=YES
 // LATEX_PDF_SIZE
  edge [fontname="Helvetica",fontsize="10",labelfontname="Helvetica",labelfontsize="10"];
  node [fontname="Helvetica",fontsize="10",shape=record];
  Node1 [label="PoissonExample::OpKt",height=0.2,width=0.4,color="black", fillcolor="grey75", style="filled", fontcolor="black",tooltip=" "];
  Node2 -> Node1 [dir="back",color="midnightblue",fontsize="10",style="solid",fontname="Helvetica"];
  Node2 [label="PoissonExample::OpK",height=0.2,width=0.4,color="black", fillcolor="white", style="filled",URL="$struct_poisson_example_1_1_op_k.html",tooltip="Calculate the grad-grad operator and assemble matrix."];
  Node3 -> Node2 [dir="back",color="darkorchid3",fontsize="10",style="dashed",label=" locMat" ,fontname="Helvetica"];
  Node3 [label="MatrixDouble",height=0.2,width=0.4,color="black", fillcolor="white", style="filled",URL="$class_matrix_double.html",tooltip=" "];
  Node4 -> Node2 [dir="back",color="darkorchid3",fontsize="10",style="dashed",label=" i" ,fontname="Helvetica"];
  Node4 [label="FTensor::Index\< 'i', 3 \>",height=0.2,width=0.4,color="black", fillcolor="white", style="filled",URL="$class_f_tensor_1_1_index.html",tooltip=" "];
  Node5 -> Node2 [dir="back",color="darkorchid3",fontsize="10",style="dashed",label=" isDiag" ,fontname="Helvetica"];
  Node5 [label="bool",height=0.2,width=0.4,color="black", fillcolor="white", style="filled",URL="$classbool.html",tooltip=" "];
}
