digraph "NeumannForcesSurface::LinearVaringPresssure"
{
 // INTERACTIVE_SVG=YES
 // LATEX_PDF_SIZE
  edge [fontname="Helvetica",fontsize="10",labelfontname="Helvetica",labelfontsize="10"];
  node [fontname="Helvetica",fontsize="10",shape=record];
  Node1 [label="NeumannForcesSurface\l::LinearVaringPresssure",height=0.2,width=0.4,color="black", fillcolor="grey75", style="filled", fontcolor="black",tooltip=" "];
  Node2 -> Node1 [dir="back",color="midnightblue",fontsize="10",style="solid",fontname="Helvetica"];
  Node2 [label="NeumannForcesSurface\l::MethodForAnalyticalForce",height=0.2,width=0.4,color="black", fillcolor="white", style="filled",URL="$struct_neumann_forces_surface_1_1_method_for_analytical_force.html",tooltip="Analytical force method."];
}
