digraph "FractureMechanics::ConstantArea::OpAreaC"
{
 // INTERACTIVE_SVG=YES
 // LATEX_PDF_SIZE
  edge [fontname="Helvetica",fontsize="10",labelfontname="Helvetica",labelfontsize="10"];
  node [fontname="Helvetica",fontsize="10",shape=record];
  Node1 [label="FractureMechanics::\lConstantArea::OpAreaC",height=0.2,width=0.4,color="black", fillcolor="grey75", style="filled", fontcolor="black",tooltip=" "];
  Node2 -> Node1 [dir="back",color="midnightblue",fontsize="10",style="solid",fontname="Helvetica"];
  Node2 [label="FractureMechanics::\lConstantArea::AuxOp",height=0.2,width=0.4,color="black", fillcolor="white", style="filled",URL="$struct_fracture_mechanics_1_1_constant_area_1_1_aux_op.html",tooltip=" "];
}
