digraph "ThermalElement::OpGetTetRateAtGaussPts"
{
 // INTERACTIVE_SVG=YES
 // LATEX_PDF_SIZE
  edge [fontname="Helvetica",fontsize="10",labelfontname="Helvetica",labelfontsize="10"];
  node [fontname="Helvetica",fontsize="10",shape=record];
  Node1 [label="ThermalElement::OpGetTet\lRateAtGaussPts",height=0.2,width=0.4,color="black", fillcolor="grey75", style="filled", fontcolor="black",tooltip="operator to calculate temperature rate at Gauss pts"];
  Node2 -> Node1 [dir="back",color="midnightblue",fontsize="10",style="solid",fontname="Helvetica"];
  Node2 [label="ThermalElement::OpGetField\lAtGaussPts\< MoFEM::VolumeElement\lForcesAndSourcesCore \>",height=0.2,width=0.4,color="black", fillcolor="white", style="filled",URL="$struct_thermal_element_1_1_op_get_field_at_gauss_pts.html",tooltip=" "];
}
