digraph "CohesiveElement::AssembleRhsVectors"
{
 // INTERACTIVE_SVG=YES
 // LATEX_PDF_SIZE
  edge [fontname="Helvetica",fontsize="10",labelfontname="Helvetica",labelfontsize="10"];
  node [fontname="Helvetica",fontsize="10",shape=record];
  rankdir="LR";
  Node1 [label="CohesiveElement::Assemble\lRhsVectors",height=0.2,width=0.4,color="black", fillcolor="grey75", style="filled", fontcolor="black",tooltip=" "];
  Node2 -> Node1 [dir="back",color="midnightblue",fontsize="10",style="solid",fontname="Helvetica"];
  Node2 [label="MoFEM::FEMethod",height=0.2,width=0.4,color="black", fillcolor="white", style="filled",URL="$struct_mo_f_e_m_1_1_f_e_method.html",tooltip="structure for User Loop Methods on finite elements"];
  Node3 -> Node2 [dir="back",color="midnightblue",fontsize="10",style="solid",fontname="Helvetica"];
  Node3 [label="MoFEM::BasicMethod",height=0.2,width=0.4,color="black", fillcolor="white", style="filled",URL="$struct_mo_f_e_m_1_1_basic_method.html",tooltip="Data structure to exchange data between mofem and User Loop Methods."];
  Node4 -> Node3 [dir="back",color="midnightblue",fontsize="10",style="solid",fontname="Helvetica"];
  Node4 [label="MoFEM::KspMethod",height=0.2,width=0.4,color="black", fillcolor="white", style="filled",URL="$struct_mo_f_e_m_1_1_ksp_method.html",tooltip="data structure for ksp (linear solver) context"];
  Node5 -> Node4 [dir="back",color="midnightblue",fontsize="10",style="solid",fontname="Helvetica"];
  Node5 [label="MoFEM::UnknownInterface",height=0.2,width=0.4,color="black", fillcolor="white", style="filled",URL="$struct_mo_f_e_m_1_1_unknown_interface.html",tooltip="base class for all interface classes"];
  Node6 -> Node3 [dir="back",color="midnightblue",fontsize="10",style="solid",fontname="Helvetica"];
  Node6 [label="MoFEM::SnesMethod",height=0.2,width=0.4,color="black", fillcolor="white", style="filled",URL="$struct_mo_f_e_m_1_1_snes_method.html",tooltip="data structure for snes (nonlinear solver) context"];
  Node5 -> Node6 [dir="back",color="midnightblue",fontsize="10",style="solid",fontname="Helvetica"];
  Node7 -> Node3 [dir="back",color="midnightblue",fontsize="10",style="solid",fontname="Helvetica"];
  Node7 [label="MoFEM::TSMethod",height=0.2,width=0.4,color="black", fillcolor="white", style="filled",URL="$struct_mo_f_e_m_1_1_t_s_method.html",tooltip="data structure for TS (time stepping) context"];
  Node5 -> Node7 [dir="back",color="midnightblue",fontsize="10",style="solid",fontname="Helvetica"];
  Node8 -> Node3 [dir="back",color="darkorchid3",fontsize="10",style="dashed",label=" problemPtr" ,fontname="Helvetica"];
  Node8 [label="MoFEM::Problem",height=0.2,width=0.4,color="black", fillcolor="white", style="filled",URL="$struct_mo_f_e_m_1_1_problem.html",tooltip="keeps basic data about problem"];
  Node9 -> Node8 [dir="back",color="darkorchid3",fontsize="10",style="dashed",label=" meshset" ,fontname="Helvetica"];
  Node9 [label="EntityHandle",height=0.2,width=0.4,color="black", fillcolor="white", style="filled",URL="$class_entity_handle.html",tooltip=" "];
  Node10 -> Node1 [dir="back",color="darkorchid3",fontsize="10",style="dashed",label=" mField" ,fontname="Helvetica"];
  Node10 [label="MoFEM::Interface",height=0.2,width=0.4,color="black", fillcolor="white", style="filled",URL="$struct_mo_f_e_m_1_1_interface.html",tooltip=" "];
  Node11 -> Node10 [dir="back",color="midnightblue",fontsize="10",style="solid",fontname="Helvetica"];
  Node11 [label="MoFEM::DeprecatedCoreInterface",height=0.2,width=0.4,color="black", fillcolor="white", style="filled",URL="$struct_mo_f_e_m_1_1_deprecated_core_interface.html",tooltip="Deprecated interface functions."];
  Node12 -> Node11 [dir="back",color="midnightblue",fontsize="10",style="solid",fontname="Helvetica"];
  Node12 [label="MoFEM::CoreInterface",height=0.2,width=0.4,color="black", fillcolor="white", style="filled",URL="$struct_mo_f_e_m_1_1_core_interface.html",tooltip="Interface."];
  Node5 -> Node12 [dir="back",color="midnightblue",fontsize="10",style="solid",fontname="Helvetica"];
}
