digraph "CohesiveElement::ArcLengthIntElemFEMethod"
{
 // INTERACTIVE_SVG=YES
 // LATEX_PDF_SIZE
  edge [fontname="Helvetica",fontsize="10",labelfontname="Helvetica",labelfontsize="10"];
  node [fontname="Helvetica",fontsize="10",shape=record];
  Node1 [label="CohesiveElement::ArcLength\lIntElemFEMethod",height=0.2,width=0.4,color="black", fillcolor="grey75", style="filled", fontcolor="black",tooltip=" "];
  Node2 -> Node1 [dir="back",color="midnightblue",fontsize="10",style="solid",fontname="Helvetica"];
  Node2 [label="FEMethod",height=0.2,width=0.4,color="black", fillcolor="white", style="filled",URL="$class_f_e_method.html",tooltip=" "];
  Node1 -> Node3 [dir="back",color="midnightblue",fontsize="10",style="solid",fontname="Helvetica"];
  Node3 [label="CohesiveElement::ArcLength\lElement",height=0.2,width=0.4,color="black", fillcolor="white", style="filled",URL="$struct_cohesive_element_1_1_arc_length_element.html",tooltip=" "];
}
