digraph "NeoHookean&lt; TYPE &gt;"
{
 // INTERACTIVE_SVG=YES
 // LATEX_PDF_SIZE
  edge [fontname="Helvetica",fontsize="10",labelfontname="Helvetica",labelfontsize="10"];
  node [fontname="Helvetica",fontsize="10",shape=record];
  Node1 [label="NeoHookean\< TYPE \>",height=0.2,width=0.4,color="black", fillcolor="grey75", style="filled", fontcolor="black",tooltip="NeoHookan equation."];
  Node2 -> Node1 [dir="back",color="midnightblue",fontsize="10",style="solid",fontname="Helvetica"];
  Node2 [label="NonlinearElasticElement\l::FunctionsToCalculatePiolaKirchhoff\lI\< TYPE \>",height=0.2,width=0.4,color="black", fillcolor="white", style="filled",URL="$struct_nonlinear_elastic_element_1_1_functions_to_calculate_piola_kirchhoff_i.html",tooltip="Implementation of elastic (non-linear) St. Kirchhoff equation."];
}
