digraph "PostProcFaceOnRefinedMesh::CommonData"
{
 // INTERACTIVE_SVG=YES
 // LATEX_PDF_SIZE
  edge [fontname="Helvetica",fontsize="10",labelfontname="Helvetica",labelfontsize="10"];
  node [fontname="Helvetica",fontsize="10",shape=record];
  Node1 [label="PostProcFaceOnRefinedMesh\l::CommonData",height=0.2,width=0.4,color="black", fillcolor="grey75", style="filled", fontcolor="black",tooltip=" "];
  Node2 -> Node1 [dir="back",color="midnightblue",fontsize="10",style="solid",fontname="Helvetica"];
  Node2 [label="PostProcCommonOnRefMesh\l::CommonData",height=0.2,width=0.4,color="black", fillcolor="white", style="filled",URL="$struct_post_proc_common_on_ref_mesh_1_1_common_data.html",tooltip=" "];
}
