digraph "NeumannForcesSurfaceComplexForLazy::AuxMethodMaterial"
{
 // INTERACTIVE_SVG=YES
 // LATEX_PDF_SIZE
  edge [fontname="Helvetica",fontsize="10",labelfontname="Helvetica",labelfontsize="10"];
  node [fontname="Helvetica",fontsize="10",shape=record];
  Node1 [label="NeumannForcesSurfaceComplex\lForLazy::AuxMethodMaterial",height=0.2,width=0.4,color="black", fillcolor="grey75", style="filled", fontcolor="black",tooltip=" "];
  Node2 -> Node1 [dir="back",color="midnightblue",fontsize="10",style="solid",fontname="Helvetica"];
  Node2 [label="UserDataOperator",height=0.2,width=0.4,color="black", fillcolor="white", style="filled",URL="$class_mo_f_e_m_1_1_face_element_forces_and_sources_core_1_1_user_data_operator.html",tooltip=" "];
}
