digraph "MixTransport::MixTransportElement"
{
 // INTERACTIVE_SVG=YES
 // LATEX_PDF_SIZE
  edge [fontname="Helvetica",fontsize="10",labelfontname="Helvetica",labelfontsize="10"];
  node [fontname="Helvetica",fontsize="10",shape=record];
  Node1 [label="MixTransport::MixTransport\lElement",height=0.2,width=0.4,color="black", fillcolor="grey75", style="filled", fontcolor="black",tooltip="Mix transport problem."];
  Node1 -> Node2 [dir="back",color="midnightblue",fontsize="10",style="solid",fontname="Helvetica"];
  Node2 [label="MixTransport::Unsaturated\lFlowElement",height=0.2,width=0.4,color="black", fillcolor="white", style="filled",URL="$struct_mix_transport_1_1_unsaturated_flow_element.html",tooltip="Implementation of operators, problem and finite elements for unsaturated flow."];
  Node1 -> Node3 [dir="back",color="midnightblue",fontsize="10",style="solid",fontname="Helvetica"];
  Node3 [label="MyTransport",height=0.2,width=0.4,color="black", fillcolor="white", style="filled",URL="$struct_my_transport.html",tooltip="Application of mix transport data structure."];
  Node1 -> Node3 [dir="back",color="midnightblue",fontsize="10",style="solid",fontname="Helvetica"];
}
