digraph "MixTransport::UnsaturatedFlowElement::preProcessVol"
{
 // INTERACTIVE_SVG=YES
 // LATEX_PDF_SIZE
  edge [fontname="Helvetica",fontsize="10",labelfontname="Helvetica",labelfontsize="10"];
  node [fontname="Helvetica",fontsize="10",shape=record];
  rankdir="LR";
  Node1 [label="MixTransport::Unsaturated\lFlowElement::preProcessVol",height=0.2,width=0.4,color="black", fillcolor="grey75", style="filled", fontcolor="black",tooltip="Pre-peprocessing Set head pressute rate and get inital essential boundary conditions."];
  Node2 -> Node1 [dir="back",color="darkorchid3",fontsize="10",style="dashed",label=" cTx" ,fontname="Helvetica"];
  Node2 [label="MixTransport::Unsaturated\lFlowElement",height=0.2,width=0.4,color="black", fillcolor="white", style="filled",URL="$struct_mix_transport_1_1_unsaturated_flow_element.html",tooltip="Implementation of operators, problem and finite elements for unsaturated flow."];
  Node3 -> Node2 [dir="back",color="midnightblue",fontsize="10",style="solid",fontname="Helvetica"];
  Node3 [label="MixTransport::MixTransport\lElement",height=0.2,width=0.4,color="black", fillcolor="white", style="filled",URL="$struct_mix_transport_1_1_mix_transport_element.html",tooltip="Mix transport problem."];
  Node4 -> Node3 [dir="back",color="darkorchid3",fontsize="10",style="dashed",label=" valuesGradientAtGaussPts\nfluxesAtGaussPts" ,fontname="Helvetica"];
  Node4 [label="MatrixDouble",height=0.2,width=0.4,color="black", fillcolor="white", style="filled",URL="$class_matrix_double.html",tooltip=" "];
  Node5 -> Node3 [dir="back",color="darkorchid3",fontsize="10",style="dashed",label=" sumErrorDiv\nsumErrorFlux\nsumErrorJump" ,fontname="Helvetica"];
  Node5 [label="double",height=0.2,width=0.4,color="black", fillcolor="white", style="filled",URL="$classdouble.html",tooltip=" "];
  Node6 -> Node3 [dir="back",color="darkorchid3",fontsize="10",style="dashed",label=" feTri" ,fontname="Helvetica"];
  Node6 [label="MixTransport::MixTransport\lElement::MyTriFE",height=0.2,width=0.4,color="black", fillcolor="white", style="filled",URL="$struct_mix_transport_1_1_mix_transport_element_1_1_my_tri_f_e.html",tooltip="definition of surface element"];
  Node7 -> Node3 [dir="back",color="darkorchid3",fontsize="10",style="dashed",label=" mField" ,fontname="Helvetica"];
  Node7 [label="MoFEM::Interface",height=0.2,width=0.4,color="black", fillcolor="white", style="filled",URL="$struct_mo_f_e_m_1_1_interface.html",tooltip=" "];
  Node8 -> Node7 [dir="back",color="midnightblue",fontsize="10",style="solid",fontname="Helvetica"];
  Node8 [label="MoFEM::DeprecatedCoreInterface",height=0.2,width=0.4,color="black", fillcolor="white", style="filled",URL="$struct_mo_f_e_m_1_1_deprecated_core_interface.html",tooltip="Deprecated interface functions."];
  Node9 -> Node8 [dir="back",color="midnightblue",fontsize="10",style="solid",fontname="Helvetica"];
  Node9 [label="MoFEM::CoreInterface",height=0.2,width=0.4,color="black", fillcolor="white", style="filled",URL="$struct_mo_f_e_m_1_1_core_interface.html",tooltip="Interface."];
  Node10 -> Node9 [dir="back",color="midnightblue",fontsize="10",style="solid",fontname="Helvetica"];
  Node10 [label="MoFEM::UnknownInterface",height=0.2,width=0.4,color="black", fillcolor="white", style="filled",URL="$struct_mo_f_e_m_1_1_unknown_interface.html",tooltip="base class for all interface classes"];
  Node11 -> Node3 [dir="back",color="darkorchid3",fontsize="10",style="dashed",label=" feVol" ,fontname="Helvetica"];
  Node11 [label="MixTransport::MixTransport\lElement::MyVolumeFE",height=0.2,width=0.4,color="black", fillcolor="white", style="filled",URL="$struct_mix_transport_1_1_mix_transport_element_1_1_my_volume_f_e.html",tooltip="definition of volume element"];
  Node12 -> Node11 [dir="back",color="midnightblue",fontsize="10",style="solid",fontname="Helvetica"];
  Node12 [label="MoFEM::VolumeElementForces\lAndSourcesCore",height=0.2,width=0.4,color="black", fillcolor="white", style="filled",URL="$struct_mo_f_e_m_1_1_volume_element_forces_and_sources_core_switch.html",tooltip="Volume finite element with switches."];
  Node13 -> Node12 [dir="back",color="midnightblue",fontsize="10",style="solid",fontname="Helvetica"];
  Node13 [label="MoFEM::VolumeElementForces\lAndSourcesCoreBase",height=0.2,width=0.4,color="black", fillcolor="white", style="filled",URL="$struct_mo_f_e_m_1_1_volume_element_forces_and_sources_core_base.html",tooltip="Volume finite element base."];
  Node14 -> Node13 [dir="back",color="midnightblue",fontsize="10",style="solid",fontname="Helvetica"];
  Node14 [label="MoFEM::ForcesAndSourcesCore",height=0.2,width=0.4,color="black", fillcolor="white", style="filled",URL="$struct_mo_f_e_m_1_1_forces_and_sources_core.html",tooltip="structure to get information form mofem into DataForcesAndSourcesCore"];
  Node15 -> Node14 [dir="back",color="midnightblue",fontsize="10",style="solid",fontname="Helvetica"];
  Node15 [label="MoFEM::FEMethod",height=0.2,width=0.4,color="black", fillcolor="white", style="filled",URL="$struct_mo_f_e_m_1_1_f_e_method.html",tooltip="structure for User Loop Methods on finite elements"];
  Node16 -> Node15 [dir="back",color="midnightblue",fontsize="10",style="solid",fontname="Helvetica"];
  Node16 [label="MoFEM::BasicMethod",height=0.2,width=0.4,color="black", fillcolor="white", style="filled",URL="$struct_mo_f_e_m_1_1_basic_method.html",tooltip="Data structure to exchange data between mofem and User Loop Methods."];
  Node17 -> Node16 [dir="back",color="midnightblue",fontsize="10",style="solid",fontname="Helvetica"];
  Node17 [label="MoFEM::KspMethod",height=0.2,width=0.4,color="black", fillcolor="white", style="filled",URL="$struct_mo_f_e_m_1_1_ksp_method.html",tooltip="data structure for ksp (linear solver) context"];
  Node10 -> Node17 [dir="back",color="midnightblue",fontsize="10",style="solid",fontname="Helvetica"];
  Node18 -> Node16 [dir="back",color="midnightblue",fontsize="10",style="solid",fontname="Helvetica"];
  Node18 [label="MoFEM::SnesMethod",height=0.2,width=0.4,color="black", fillcolor="white", style="filled",URL="$struct_mo_f_e_m_1_1_snes_method.html",tooltip="data structure for snes (nonlinear solver) context"];
  Node10 -> Node18 [dir="back",color="midnightblue",fontsize="10",style="solid",fontname="Helvetica"];
  Node19 -> Node16 [dir="back",color="midnightblue",fontsize="10",style="solid",fontname="Helvetica"];
  Node19 [label="MoFEM::TSMethod",height=0.2,width=0.4,color="black", fillcolor="white", style="filled",URL="$struct_mo_f_e_m_1_1_t_s_method.html",tooltip="data structure for TS (time stepping) context"];
  Node10 -> Node19 [dir="back",color="midnightblue",fontsize="10",style="solid",fontname="Helvetica"];
  Node20 -> Node16 [dir="back",color="darkorchid3",fontsize="10",style="dashed",label=" problemPtr" ,fontname="Helvetica"];
  Node20 [label="MoFEM::Problem",height=0.2,width=0.4,color="black", fillcolor="white", style="filled",URL="$struct_mo_f_e_m_1_1_problem.html",tooltip="keeps basic data about problem"];
  Node21 -> Node20 [dir="back",color="darkorchid3",fontsize="10",style="dashed",label=" meshset" ,fontname="Helvetica"];
  Node21 [label="EntityHandle",height=0.2,width=0.4,color="black", fillcolor="white", style="filled",URL="$class_entity_handle.html",tooltip=" "];
  Node22 -> Node14 [dir="back",color="darkorchid3",fontsize="10",style="dashed",label=" dataNoField\ndataL2\ndataH1\ndataHcurl\ndataHdiv" ,fontname="Helvetica"];
  Node22 [label="MoFEM::DataForcesAndSourcesCore",height=0.2,width=0.4,color="black", fillcolor="white", style="filled",URL="$struct_mo_f_e_m_1_1_data_forces_and_sources_core.html",tooltip="data structure for finite element entity"];
  Node14 -> Node14 [dir="back",color="darkorchid3",fontsize="10",style="dashed",label=" sidePtrFE" ,fontname="Helvetica"];
  Node7 -> Node14 [dir="back",color="darkorchid3",fontsize="10",style="dashed",label=" mField" ,fontname="Helvetica"];
  Node23 -> Node13 [dir="back",color="darkorchid3",fontsize="10",style="dashed",label=" opHoCovariantTransform" ,fontname="Helvetica"];
  Node23 [label="MoFEM::OpSetHoCovariantPiola\lTransform",height=0.2,width=0.4,color="black", fillcolor="white", style="filled",URL="$struct_mo_f_e_m_1_1_op_set_ho_covariant_piola_transform.html",tooltip="Apply covariant (Piola) transfer to Hcurl space for HO geometry."];
  Node24 -> Node23 [dir="back",color="midnightblue",fontsize="10",style="solid",fontname="Helvetica"];
  Node24 [label="MoFEM::DataOperator",height=0.2,width=0.4,color="black", fillcolor="white", style="filled",URL="$struct_mo_f_e_m_1_1_data_operator.html",tooltip="base operator to do operations at Gauss Pt. level"];
  Node25 -> Node24 [dir="back",color="darkorchid3",fontsize="10",style="dashed",label=" doTris\ndoQuads\nsYmm\ndoPrisms\ndoTets\ndoVertices\ndoEdges" ,fontname="Helvetica"];
  Node25 [label="bool",height=0.2,width=0.4,color="black", fillcolor="white", style="filled",URL="$classbool.html",tooltip=" "];
  Node26 -> Node23 [dir="back",color="darkorchid3",fontsize="10",style="dashed",label=" i" ,fontname="Helvetica"];
  Node26 [label="FTensor::Index\< 'i', 3 \>",height=0.2,width=0.4,color="black", fillcolor="white", style="filled",URL="$class_f_tensor_1_1_index.html",tooltip=" "];
  Node27 -> Node23 [dir="back",color="darkorchid3",fontsize="10",style="dashed",label=" j" ,fontname="Helvetica"];
  Node27 [label="FTensor::Index\< 'j', 3 \>",height=0.2,width=0.4,color="black", fillcolor="white", style="filled",URL="$class_f_tensor_1_1_index.html",tooltip=" "];
  Node28 -> Node23 [dir="back",color="darkorchid3",fontsize="10",style="dashed",label=" k" ,fontname="Helvetica"];
  Node28 [label="FTensor::Index\< 'k', 3 \>",height=0.2,width=0.4,color="black", fillcolor="white", style="filled",URL="$class_f_tensor_1_1_index.html",tooltip=" "];
  Node21 -> Node13 [dir="back",color="darkorchid3",fontsize="10",style="dashed",label=" conn" ,fontname="Helvetica"];
  Node5 -> Node13 [dir="back",color="darkorchid3",fontsize="10",style="dashed",label=" vOlume" ,fontname="Helvetica"];
  Node29 -> Node13 [dir="back",color="darkorchid3",fontsize="10",style="dashed",label=" opHoContravariantTransform" ,fontname="Helvetica"];
  Node29 [label="MoFEM::OpSetHoContravariant\lPiolaTransform",height=0.2,width=0.4,color="black", fillcolor="white", style="filled",URL="$struct_mo_f_e_m_1_1_op_set_ho_contravariant_piola_transform.html",tooltip="Apply contravariant (Piola) transfer to Hdiv space for HO geometr."];
  Node24 -> Node29 [dir="back",color="midnightblue",fontsize="10",style="solid",fontname="Helvetica"];
  Node26 -> Node29 [dir="back",color="darkorchid3",fontsize="10",style="dashed",label=" i" ,fontname="Helvetica"];
  Node27 -> Node29 [dir="back",color="darkorchid3",fontsize="10",style="dashed",label=" j" ,fontname="Helvetica"];
  Node28 -> Node29 [dir="back",color="darkorchid3",fontsize="10",style="dashed",label=" k" ,fontname="Helvetica"];
  Node30 -> Node13 [dir="back",color="darkorchid3",fontsize="10",style="dashed",label=" opContravariantPiolaTransform" ,fontname="Helvetica"];
  Node30 [label="MoFEM::OpSetContravariant\lPiolaTransform",height=0.2,width=0.4,color="black", fillcolor="white", style="filled",URL="$struct_mo_f_e_m_1_1_op_set_contravariant_piola_transform.html",tooltip="apply contravariant (Piola) transfer to Hdiv space"];
  Node24 -> Node30 [dir="back",color="midnightblue",fontsize="10",style="solid",fontname="Helvetica"];
  Node5 -> Node30 [dir="back",color="darkorchid3",fontsize="10",style="dashed",label=" vOlume" ,fontname="Helvetica"];
  Node26 -> Node30 [dir="back",color="darkorchid3",fontsize="10",style="dashed",label=" i" ,fontname="Helvetica"];
  Node27 -> Node30 [dir="back",color="darkorchid3",fontsize="10",style="dashed",label=" j" ,fontname="Helvetica"];
  Node28 -> Node30 [dir="back",color="darkorchid3",fontsize="10",style="dashed",label=" k" ,fontname="Helvetica"];
  Node31 -> Node30 [dir="back",color="darkorchid3",fontsize="10",style="dashed",label=" tJac" ,fontname="Helvetica"];
  Node31 [label="FTensor::Tensor2\< double\l *, 3, 3 \>",height=0.2,width=0.4,color="black", fillcolor="white", style="filled",URL="$class_f_tensor_1_1_tensor2.html",tooltip=" "];
  Node5 -> Node31 [dir="back",color="darkorchid3",fontsize="10",style="dashed",label=" data" ,fontname="Helvetica"];
  Node32 -> Node13 [dir="back",color="darkorchid3",fontsize="10",style="dashed",label=" opSetInvJacHdivAndHcurl" ,fontname="Helvetica"];
  Node32 [label="MoFEM::OpSetInvJacHdivAnd\lHcurl",height=0.2,width=0.4,color="black", fillcolor="white", style="filled",URL="$struct_mo_f_e_m_1_1_op_set_inv_jac_hdiv_and_hcurl.html",tooltip="brief Transform local reference derivatives of shape function to global derivatives"];
  Node24 -> Node32 [dir="back",color="midnightblue",fontsize="10",style="solid",fontname="Helvetica"];
  Node26 -> Node32 [dir="back",color="darkorchid3",fontsize="10",style="dashed",label=" i" ,fontname="Helvetica"];
  Node27 -> Node32 [dir="back",color="darkorchid3",fontsize="10",style="dashed",label=" j" ,fontname="Helvetica"];
  Node28 -> Node32 [dir="back",color="darkorchid3",fontsize="10",style="dashed",label=" k" ,fontname="Helvetica"];
  Node31 -> Node32 [dir="back",color="darkorchid3",fontsize="10",style="dashed",label=" tInvJac" ,fontname="Helvetica"];
  Node33 -> Node13 [dir="back",color="darkorchid3",fontsize="10",style="dashed",label=" opCovariantPiolaTransform" ,fontname="Helvetica"];
  Node33 [label="MoFEM::OpSetCovariantPiola\lTransform",height=0.2,width=0.4,color="black", fillcolor="white", style="filled",URL="$struct_mo_f_e_m_1_1_op_set_covariant_piola_transform.html",tooltip="apply covariant transfer to Hcurl space"];
  Node24 -> Node33 [dir="back",color="midnightblue",fontsize="10",style="solid",fontname="Helvetica"];
  Node26 -> Node33 [dir="back",color="darkorchid3",fontsize="10",style="dashed",label=" i" ,fontname="Helvetica"];
  Node27 -> Node33 [dir="back",color="darkorchid3",fontsize="10",style="dashed",label=" j" ,fontname="Helvetica"];
  Node28 -> Node33 [dir="back",color="darkorchid3",fontsize="10",style="dashed",label=" k" ,fontname="Helvetica"];
  Node31 -> Node33 [dir="back",color="darkorchid3",fontsize="10",style="dashed",label=" tInvJac" ,fontname="Helvetica"];
  Node34 -> Node13 [dir="back",color="darkorchid3",fontsize="10",style="dashed",label=" opSetHoInvJacH1" ,fontname="Helvetica"];
  Node34 [label="MoFEM::OpSetHoInvJacH1",height=0.2,width=0.4,color="black", fillcolor="white", style="filled",URL="$struct_mo_f_e_m_1_1_op_set_ho_inv_jac_h1.html",tooltip="transform local reference derivatives of shape function to global derivatives if higher order geometr..."];
  Node24 -> Node34 [dir="back",color="midnightblue",fontsize="10",style="solid",fontname="Helvetica"];
  Node26 -> Node34 [dir="back",color="darkorchid3",fontsize="10",style="dashed",label=" i" ,fontname="Helvetica"];
  Node27 -> Node34 [dir="back",color="darkorchid3",fontsize="10",style="dashed",label=" j" ,fontname="Helvetica"];
  Node35 -> Node13 [dir="back",color="darkorchid3",fontsize="10",style="dashed",label=" opSetHoInvJacHdivAndHcurl" ,fontname="Helvetica"];
  Node35 [label="MoFEM::OpSetHoInvJacHdiv\lAndHcurl",height=0.2,width=0.4,color="black", fillcolor="white", style="filled",URL="$struct_mo_f_e_m_1_1_op_set_ho_inv_jac_hdiv_and_hcurl.html",tooltip="transform local reference derivatives of shape function to global derivatives if higher order geometr..."];
  Node24 -> Node35 [dir="back",color="midnightblue",fontsize="10",style="solid",fontname="Helvetica"];
  Node26 -> Node35 [dir="back",color="darkorchid3",fontsize="10",style="dashed",label=" i" ,fontname="Helvetica"];
  Node27 -> Node35 [dir="back",color="darkorchid3",fontsize="10",style="dashed",label=" j" ,fontname="Helvetica"];
  Node28 -> Node35 [dir="back",color="darkorchid3",fontsize="10",style="dashed",label=" k" ,fontname="Helvetica"];
  Node36 -> Node13 [dir="back",color="darkorchid3",fontsize="10",style="dashed",label=" opHOatGaussPoints" ,fontname="Helvetica"];
  Node36 [label="MoFEM::OpGetDataAndGradient\l\< 3, 3 \>",height=0.2,width=0.4,color="black", fillcolor="white", style="filled",URL="$struct_mo_f_e_m_1_1_op_get_data_and_gradient.html",tooltip=" "];
  Node24 -> Node36 [dir="back",color="midnightblue",fontsize="10",style="solid",fontname="Helvetica"];
  Node37 -> Node13 [dir="back",color="darkorchid3",fontsize="10",style="dashed",label=" opSetInvJacH1" ,fontname="Helvetica"];
  Node37 [label="MoFEM::OpSetInvJacH1",height=0.2,width=0.4,color="black", fillcolor="white", style="filled",URL="$struct_mo_f_e_m_1_1_op_set_inv_jac_h1.html",tooltip="Transform local reference derivatives of shape function to global derivatives."];
  Node24 -> Node37 [dir="back",color="midnightblue",fontsize="10",style="solid",fontname="Helvetica"];
  Node26 -> Node37 [dir="back",color="darkorchid3",fontsize="10",style="dashed",label=" i" ,fontname="Helvetica"];
  Node27 -> Node37 [dir="back",color="darkorchid3",fontsize="10",style="dashed",label=" j" ,fontname="Helvetica"];
  Node31 -> Node37 [dir="back",color="darkorchid3",fontsize="10",style="dashed",label=" tInvJac" ,fontname="Helvetica"];
  Node31 -> Node13 [dir="back",color="darkorchid3",fontsize="10",style="dashed",label=" tInvJac\ntJac" ,fontname="Helvetica"];
  Node21 -> Node2 [dir="back",color="darkorchid3",fontsize="10",style="dashed",label=" lastEvalBcFluxEnt\nlastEvalBcValEnt" ,fontname="Helvetica"];
}
