digraph "FractureMechanics::GetSmoothingElementsSkin"
{
 // INTERACTIVE_SVG=YES
 // LATEX_PDF_SIZE
  edge [fontname="Helvetica",fontsize="10",labelfontname="Helvetica",labelfontsize="10"];
  node [fontname="Helvetica",fontsize="10",shape=record];
  Node1 [label="FractureMechanics::\lGetSmoothingElementsSkin",height=0.2,width=0.4,color="black", fillcolor="grey75", style="filled", fontcolor="black",tooltip=" "];
  Node2 -> Node1 [dir="back",color="darkorchid3",fontsize="10",style="dashed",label=" cP" ,fontname="Helvetica"];
  Node2 [label="FractureMechanics::\lCrackPropagation",height=0.2,width=0.4,color="black", fillcolor="white", style="filled",URL="$struct_fracture_mechanics_1_1_crack_propagation.html",tooltip=" "];
  Node3 -> Node2 [dir="back",color="midnightblue",fontsize="10",style="solid",fontname="Helvetica"];
  Node3 [label="MoFEM::UnknownInterface",height=0.2,width=0.4,color="black", fillcolor="white", style="filled",URL="$struct_mo_f_e_m_1_1_unknown_interface.html",tooltip="base class for all interface classes"];
  Node4 -> Node2 [dir="back",color="darkorchid3",fontsize="10",style="dashed",label=" arcLengthVertex" ,fontname="Helvetica"];
  Node4 [label="EntityHandle",height=0.2,width=0.4,color="black", fillcolor="white", style="filled",URL="$class_entity_handle.html",tooltip=" "];
  Node5 -> Node2 [dir="back",color="darkorchid3",fontsize="10",style="dashed",label=" arcBeta\ncrackFrontLength\narcS\narcAlpha\nfractionOfFixedNodes\ncrackSurfaceArea\nsmootherAlpha\nmaxG1\ninitialSmootherAlpha\ncrackAccelerationFactor\n..." ,fontname="Helvetica"];
  Node5 [label="double",height=0.2,width=0.4,color="black", fillcolor="white", style="filled",URL="$classdouble.html",tooltip=" "];
  Node6 -> Node2 [dir="back",color="darkorchid3",fontsize="10",style="dashed",label=" mField" ,fontname="Helvetica"];
  Node6 [label="MoFEM::Interface",height=0.2,width=0.4,color="black", fillcolor="white", style="filled",URL="$struct_mo_f_e_m_1_1_interface.html",tooltip=" "];
  Node7 -> Node6 [dir="back",color="midnightblue",fontsize="10",style="solid",fontname="Helvetica"];
  Node7 [label="MoFEM::DeprecatedCoreInterface",height=0.2,width=0.4,color="black", fillcolor="white", style="filled",URL="$struct_mo_f_e_m_1_1_deprecated_core_interface.html",tooltip="Deprecated interface functions."];
  Node8 -> Node7 [dir="back",color="midnightblue",fontsize="10",style="solid",fontname="Helvetica"];
  Node8 [label="MoFEM::CoreInterface",height=0.2,width=0.4,color="black", fillcolor="white", style="filled",URL="$struct_mo_f_e_m_1_1_core_interface.html",tooltip="Interface."];
  Node3 -> Node8 [dir="back",color="midnightblue",fontsize="10",style="solid",fontname="Helvetica"];
  Node9 -> Node2 [dir="back",color="darkorchid3",fontsize="10",style="dashed",label=" doSurfaceProjection\nonlyHooke\nisStressTagSavedOnNodes\nsetSingularCoordinates\ndebug" ,fontname="Helvetica"];
  Node9 [label="bool",height=0.2,width=0.4,color="black", fillcolor="white", style="filled",URL="$classbool.html",tooltip=" "];
  Node5 -> Node1 [dir="back",color="darkorchid3",fontsize="10",style="dashed",label=" gcFixThreshold" ,fontname="Helvetica"];
}
