digraph "MoFEM::FlatPrismElementForcesAndSourcesCore::UserDataOperator"
{
 // INTERACTIVE_SVG=YES
 // LATEX_PDF_SIZE
  edge [fontname="Helvetica",fontsize="10",labelfontname="Helvetica",labelfontsize="10"];
  node [fontname="Helvetica",fontsize="10",shape=record];
  Node1 [label="MoFEM::FlatPrismElementForces\lAndSourcesCore::UserDataOperator",height=0.2,width=0.4,color="black", fillcolor="grey75", style="filled", fontcolor="black",tooltip="default operator for Flat Prism element"];
  Node2 -> Node1 [dir="back",color="midnightblue",fontsize="10",style="solid",fontname="Helvetica"];
  Node2 [label="MoFEM::ForcesAndSourcesCore\l::UserDataOperator",height=0.2,width=0.4,color="black", fillcolor="white", style="filled",URL="$struct_mo_f_e_m_1_1_forces_and_sources_core_1_1_user_data_operator.html",tooltip="Data operator to do calculations at integration points."];
  Node3 -> Node2 [dir="back",color="midnightblue",fontsize="10",style="solid",fontname="Helvetica"];
  Node3 [label="MoFEM::DataOperator",height=0.2,width=0.4,color="black", fillcolor="white", style="filled",URL="$struct_mo_f_e_m_1_1_data_operator.html",tooltip="base operator to do operations at Gauss Pt. level"];
  Node1 -> Node4 [dir="back",color="midnightblue",fontsize="10",style="solid",fontname="Helvetica"];
  Node4 [label="MoFEM::OpCalculateInvJac\lForFlatPrism",height=0.2,width=0.4,color="black", fillcolor="white", style="filled",URL="$struct_mo_f_e_m_1_1_op_calculate_inv_jac_for_flat_prism.html",tooltip="Calculate inverse of jacobian for face element."];
  Node1 -> Node5 [dir="back",color="midnightblue",fontsize="10",style="solid",fontname="Helvetica"];
  Node5 [label="MoFEM::OpSetInvJacH1ForFlat\lPrism",height=0.2,width=0.4,color="black", fillcolor="white", style="filled",URL="$struct_mo_f_e_m_1_1_op_set_inv_jac_h1_for_flat_prism.html",tooltip="Transform local reference derivatives of shape functions to global derivatives."];
}
