digraph "SurfaceSlidingConstrains"
{
 // INTERACTIVE_SVG=YES
 // LATEX_PDF_SIZE
  edge [fontname="Helvetica",fontsize="10",labelfontname="Helvetica",labelfontsize="10"];
  node [fontname="Helvetica",fontsize="10",shape=record];
  Node1 [label="SurfaceSlidingConstrains",height=0.2,width=0.4,color="black", fillcolor="grey75", style="filled", fontcolor="black",tooltip="Shape preserving constrains, i.e. nodes sliding on body surface."];
  Node2 -> Node1 [dir="back",color="midnightblue",fontsize="10",style="solid",fontname="Helvetica"];
  Node2 [label="GenericSliding",height=0.2,width=0.4,color="black", fillcolor="white", style="filled",URL="$struct_generic_sliding.html",tooltip="Implementation of surface sliding constrains."];
}
