digraph "HookeElement::OpLhs_dx_dx&lt; S &gt;"
{
 // INTERACTIVE_SVG=YES
 // LATEX_PDF_SIZE
  edge [fontname="Helvetica",fontsize="10",labelfontname="Helvetica",labelfontsize="10"];
  node [fontname="Helvetica",fontsize="10",shape=record];
  rankdir="LR";
  Node1 [label="HookeElement::OpLhs\l_dx_dx\< S \>",height=0.2,width=0.4,color="black", fillcolor="grey75", style="filled", fontcolor="black",tooltip=" "];
  Node2 -> Node1 [dir="back",color="midnightblue",fontsize="10",style="solid",fontname="Helvetica"];
  Node2 [label="HookeElement::OpAssemble",height=0.2,width=0.4,color="black", fillcolor="white", style="filled",URL="$struct_hooke_element_1_1_op_assemble.html",tooltip=" "];
  Node3 -> Node2 [dir="back",color="midnightblue",fontsize="10",style="solid",fontname="Helvetica"];
  Node3 [label="VolUserDataOperator",height=0.2,width=0.4,color="black", fillcolor="white", style="filled",URL="$struct_mo_f_e_m_1_1_volume_element_forces_and_sources_core_base_1_1_user_data_operator.html",tooltip="default operator for TET element"];
  Node4 -> Node3 [dir="back",color="midnightblue",fontsize="10",style="solid",fontname="Helvetica"];
  Node4 [label="MoFEM::ForcesAndSourcesCore\l::UserDataOperator",height=0.2,width=0.4,color="black", fillcolor="white", style="filled",URL="$struct_mo_f_e_m_1_1_forces_and_sources_core_1_1_user_data_operator.html",tooltip="Data operator to do calculations at integration points."];
  Node5 -> Node4 [dir="back",color="midnightblue",fontsize="10",style="solid",fontname="Helvetica"];
  Node5 [label="MoFEM::DataOperator",height=0.2,width=0.4,color="black", fillcolor="white", style="filled",URL="$struct_mo_f_e_m_1_1_data_operator.html",tooltip="base operator to do operations at Gauss Pt. level"];
  Node6 -> Node5 [dir="back",color="darkorchid3",fontsize="10",style="dashed",label=" doTris\ndoQuads\nsYmm\ndoPrisms\ndoTets\ndoVertices\ndoEdges" ,fontname="Helvetica"];
  Node6 [label="bool",height=0.2,width=0.4,color="black", fillcolor="white", style="filled",URL="$classbool.html",tooltip=" "];
  Node7 -> Node4 [dir="back",color="darkorchid3",fontsize="10",style="dashed",label=" ptrFE" ,fontname="Helvetica"];
  Node7 [label="MoFEM::ForcesAndSourcesCore",height=0.2,width=0.4,color="black", fillcolor="white", style="filled",URL="$struct_mo_f_e_m_1_1_forces_and_sources_core.html",tooltip="structure to get information form mofem into DataForcesAndSourcesCore"];
  Node8 -> Node7 [dir="back",color="midnightblue",fontsize="10",style="solid",fontname="Helvetica"];
  Node8 [label="MoFEM::FEMethod",height=0.2,width=0.4,color="black", fillcolor="white", style="filled",URL="$struct_mo_f_e_m_1_1_f_e_method.html",tooltip="structure for User Loop Methods on finite elements"];
  Node9 -> Node8 [dir="back",color="midnightblue",fontsize="10",style="solid",fontname="Helvetica"];
  Node9 [label="MoFEM::BasicMethod",height=0.2,width=0.4,color="black", fillcolor="white", style="filled",URL="$struct_mo_f_e_m_1_1_basic_method.html",tooltip="Data structure to exchange data between mofem and User Loop Methods."];
  Node10 -> Node9 [dir="back",color="midnightblue",fontsize="10",style="solid",fontname="Helvetica"];
  Node10 [label="MoFEM::KspMethod",height=0.2,width=0.4,color="black", fillcolor="white", style="filled",URL="$struct_mo_f_e_m_1_1_ksp_method.html",tooltip="data structure for ksp (linear solver) context"];
  Node11 -> Node10 [dir="back",color="midnightblue",fontsize="10",style="solid",fontname="Helvetica"];
  Node11 [label="MoFEM::UnknownInterface",height=0.2,width=0.4,color="black", fillcolor="white", style="filled",URL="$struct_mo_f_e_m_1_1_unknown_interface.html",tooltip="base class for all interface classes"];
  Node12 -> Node9 [dir="back",color="midnightblue",fontsize="10",style="solid",fontname="Helvetica"];
  Node12 [label="MoFEM::SnesMethod",height=0.2,width=0.4,color="black", fillcolor="white", style="filled",URL="$struct_mo_f_e_m_1_1_snes_method.html",tooltip="data structure for snes (nonlinear solver) context"];
  Node11 -> Node12 [dir="back",color="midnightblue",fontsize="10",style="solid",fontname="Helvetica"];
  Node13 -> Node9 [dir="back",color="midnightblue",fontsize="10",style="solid",fontname="Helvetica"];
  Node13 [label="MoFEM::TSMethod",height=0.2,width=0.4,color="black", fillcolor="white", style="filled",URL="$struct_mo_f_e_m_1_1_t_s_method.html",tooltip="data structure for TS (time stepping) context"];
  Node11 -> Node13 [dir="back",color="midnightblue",fontsize="10",style="solid",fontname="Helvetica"];
  Node14 -> Node9 [dir="back",color="darkorchid3",fontsize="10",style="dashed",label=" problemPtr" ,fontname="Helvetica"];
  Node14 [label="MoFEM::Problem",height=0.2,width=0.4,color="black", fillcolor="white", style="filled",URL="$struct_mo_f_e_m_1_1_problem.html",tooltip="keeps basic data about problem"];
  Node15 -> Node14 [dir="back",color="darkorchid3",fontsize="10",style="dashed",label=" meshset" ,fontname="Helvetica"];
  Node15 [label="EntityHandle",height=0.2,width=0.4,color="black", fillcolor="white", style="filled",URL="$class_entity_handle.html",tooltip=" "];
  Node16 -> Node7 [dir="back",color="darkorchid3",fontsize="10",style="dashed",label=" dataNoField\ndataL2\ndataH1\ndataHcurl\ndataHdiv" ,fontname="Helvetica"];
  Node16 [label="MoFEM::DataForcesAndSourcesCore",height=0.2,width=0.4,color="black", fillcolor="white", style="filled",URL="$struct_mo_f_e_m_1_1_data_forces_and_sources_core.html",tooltip="data structure for finite element entity"];
  Node7 -> Node7 [dir="back",color="darkorchid3",fontsize="10",style="dashed",label=" sidePtrFE" ,fontname="Helvetica"];
  Node17 -> Node7 [dir="back",color="darkorchid3",fontsize="10",style="dashed",label=" mField" ,fontname="Helvetica"];
  Node17 [label="MoFEM::Interface",height=0.2,width=0.4,color="black", fillcolor="white", style="filled",URL="$struct_mo_f_e_m_1_1_interface.html",tooltip=" "];
  Node18 -> Node17 [dir="back",color="midnightblue",fontsize="10",style="solid",fontname="Helvetica"];
  Node18 [label="MoFEM::DeprecatedCoreInterface",height=0.2,width=0.4,color="black", fillcolor="white", style="filled",URL="$struct_mo_f_e_m_1_1_deprecated_core_interface.html",tooltip="Deprecated interface functions."];
  Node19 -> Node18 [dir="back",color="midnightblue",fontsize="10",style="solid",fontname="Helvetica"];
  Node19 [label="MoFEM::CoreInterface",height=0.2,width=0.4,color="black", fillcolor="white", style="filled",URL="$struct_mo_f_e_m_1_1_core_interface.html",tooltip="Interface."];
  Node11 -> Node19 [dir="back",color="midnightblue",fontsize="10",style="solid",fontname="Helvetica"];
  Node20 -> Node2 [dir="back",color="darkorchid3",fontsize="10",style="dashed",label=" transK\nK" ,fontname="Helvetica"];
  Node20 [label="MatrixDouble",height=0.2,width=0.4,color="black", fillcolor="white", style="filled",URL="$class_matrix_double.html",tooltip=" "];
  Node6 -> Node2 [dir="back",color="darkorchid3",fontsize="10",style="dashed",label=" isDiag" ,fontname="Helvetica"];
}
